[attributeTypes]
( 2.5.4.0 NAME 'objectClass' DESC 'RFC4512: object classes of the entity' EQUALITY objectIdentifierMatch SYNTAX 1.3.6.1.4.1.1466.115.121.1.38 )
( 2.5.21.9 NAME 'structuralObjectClass' DESC 'RFC4512: structural object class of entry' EQUALITY objectIdentifierMatch SYNTAX 1.3.6.1.4.1.1466.115.121.1.38 SINGLE-VALUE NO-USER-MODIFICATION USAGE directoryOperation )
( 2.5.18.1 NAME 'createTimestamp' DESC 'RFC4512: time which object was created' EQUALITY generalizedTimeMatch ORDERING generalizedTimeOrderingMatch SYNTAX 1.3.6.1.4.1.1466.115.121.1.24 SINGLE-VALUE NO-USER-MODIFICATION USAGE directoryOperation )
( 2.5.18.2 NAME 'modifyTimestamp' DESC 'RFC4512: time which object was last modified' EQUALITY generalizedTimeMatch ORDERING generalizedTimeOrderingMatch SYNTAX 1.3.6.1.4.1.1466.115.121.1.24 SINGLE-VALUE NO-USER-MODIFICATION USAGE directoryOperation )
( 2.5.18.3 NAME 'creatorsName' DESC 'RFC4512: name of creator' EQUALITY distinguishedNameMatch SYNTAX 1.3.6.1.4.1.1466.115.121.1.12 SINGLE-VALUE NO-USER-MODIFICATION USAGE directoryOperation )
( 2.5.18.4 NAME 'modifiersName' DESC 'RFC4512: name of last modifier' EQUALITY distinguishedNameMatch SYNTAX 1.3.6.1.4.1.1466.115.121.1.12 SINGLE-VALUE NO-USER-MODIFICATION USAGE directoryOperation )
( 2.5.18.9 NAME 'hasSubordinates' DESC 'X.501: entry has children' EQUALITY booleanMatch SYNTAX 1.3.6.1.4.1.1466.115.121.1.7 SINGLE-VALUE NO-USER-MODIFICATION USAGE directoryOperation )
( 2.5.18.10 NAME 'subschemaSubentry' DESC 'RFC4512: name of controlling subschema entry' EQUALITY distinguishedNameMatch SYNTAX 1.3.6.1.4.1.1466.115.121.1.12 SINGLE-VALUE NO-USER-MODIFICATION USAGE directoryOperation )
( 1.3.6.1.1.20 NAME 'entryDN' DESC 'DN of the entry' EQUALITY distinguishedNameMatch SYNTAX 1.3.6.1.4.1.1466.115.121.1.12 SINGLE-VALUE NO-USER-MODIFICATION USAGE directoryOperation )
( 1.3.6.1.1.16.4 NAME 'entryUUID' DESC 'UUID of the entry' EQUALITY UUIDMatch ORDERING UUIDOrderingMatch SYNTAX 1.3.6.1.1.16.1 SINGLE-VALUE NO-USER-MODIFICATION USAGE directoryOperation )
( 1.3.6.1.4.1.1466.101.120.6 NAME 'altServer' DESC 'RFC4512: alternative servers' SYNTAX 1.3.6.1.4.1.1466.115.121.1.26 USAGE dSAOperation )
( 1.3.6.1.4.1.1466.101.120.5 NAME 'namingContexts' DESC 'RFC4512: naming contexts' SYNTAX 1.3.6.1.4.1.1466.115.121.1.12 USAGE dSAOperation )
( 1.3.6.1.4.1.1466.101.120.13 NAME 'supportedControl' DESC 'RFC4512: supported controls' SYNTAX 1.3.6.1.4.1.1466.115.121.1.38 USAGE dSAOperation )
( 1.3.6.1.4.1.1466.101.120.7 NAME 'supportedExtension' DESC 'RFC4512: supported extended operations' SYNTAX 1.3.6.1.4.1.1466.115.121.1.38 USAGE dSAOperation )
( 1.3.6.1.4.1.1466.101.120.15 NAME 'supportedLDAPVersion' DESC 'RFC4512: supported LDAP versions' SYNTAX 1.3.6.1.4.1.1466.115.121.1.27 USAGE dSAOperation )
( 1.3.6.1.4.1.1466.101.120.14 NAME 'supportedSASLMechanisms' DESC 'RFC4512: supported SASL mechanisms' SYNTAX 1.3.6.1.4.1.1466.115.121.1.15 USAGE dSAOperation )
( 1.3.6.1.4.1.4203.1.3.5 NAME 'supportedFeatures' DESC 'RFC4512: features supported by the server' EQUALITY objectIdentifierMatch SYNTAX 1.3.6.1.4.1.1466.115.121.1.38 USAGE dSAOperation )
( 1.3.6.1.1.4 NAME 'vendorName' DESC 'RFC3045: name of implementation vendor' EQUALITY caseExactMatch SYNTAX 1.3.6.1.4.1.1466.115.121.1.15 SINGLE-VALUE NO-USER-MODIFICATION USAGE dSAOperation )
( 1.3.6.1.1.5 NAME 'vendorVersion' DESC 'RFC3045: version of implementation' EQUALITY caseExactMatch SYNTAX 1.3.6.1.4.1.1466.115.121.1.15 SINGLE-VALUE NO-USER-MODIFICATION USAGE dSAOperation )
( 2.5.21.4 NAME 'matchingRules' DESC 'RFC4512: matching rules' EQUALITY objectIdentifierFirstComponentMatch SYNTAX 1.3.6.1.4.1.1466.115.121.1.30 USAGE directoryOperation )
( 2.5.21.5 NAME 'attributeTypes' DESC 'RFC4512: attribute types' EQUALITY objectIdentifierFirstComponentMatch SYNTAX 1.3.6.1.4.1.1466.115.121.1.3 USAGE directoryOperation )
( 2.5.21.6 NAME 'objectClasses' DESC 'RFC4512: object classes' EQUALITY objectIdentifierFirstComponentMatch SYNTAX 1.3.6.1.4.1.1466.115.121.1.37 USAGE directoryOperation )
( 2.5.21.8 NAME 'matchingRuleUse' DESC 'RFC4512: matching rule uses' EQUALITY objectIdentifierFirstComponentMatch SYNTAX 1.3.6.1.4.1.1466.115.121.1.31 USAGE directoryOperation )
( 1.3.6.1.4.1.1466.101.120.16 NAME 'ldapSyntaxes' DESC 'RFC4512: LDAP syntaxes' EQUALITY objectIdentifierFirstComponentMatch SYNTAX 1.3.6.1.4.1.1466.115.121.1.54 USAGE directoryOperation )
( 2.5.4.1 NAME ( 'aliasedObjectName' 'aliasedEntryName' ) DESC 'RFC4512: name of aliased object' EQUALITY distinguishedNameMatch SYNTAX 1.3.6.1.4.1.1466.115.121.1.12 SINGLE-VALUE )
( 2.16.840.1.113730.3.1.34 NAME 'ref' DESC 'RFC3296: subordinate referral URL' EQUALITY caseExactMatch SYNTAX 1.3.6.1.4.1.1466.115.121.1.15 USAGE distributedOperation )
( 1.3.6.1.4.1.1466.101.119.3 NAME 'entryTtl' DESC 'RFC2589: entry time-to-live' SYNTAX 1.3.6.1.4.1.1466.115.121.1.27 SINGLE-VALUE NO-USER-MODIFICATION USAGE dSAOperation )
( 1.3.6.1.4.1.1466.101.119.4 NAME 'dynamicSubtrees' DESC 'RFC2589: dynamic subtrees' SYNTAX 1.3.6.1.4.1.1466.115.121.1.12 NO-USER-MODIFICATION USAGE dSAOperation )
( 2.5.4.49 NAME 'distinguishedName' DESC 'RFC4519: common supertype of DN attributes' EQUALITY distinguishedNameMatch SYNTAX 1.3.6.1.4.1.1466.115.121.1.12 )
( 2.5.4.41 NAME 'name' DESC 'RFC4519: common supertype of name attributes' EQUALITY caseIgnoreMatch SUBSTR caseIgnoreSubstringsMatch SYNTAX 1.3.6.1.4.1.1466.115.121.1.15{32768} )
( 2.5.4.3 NAME ( 'cn' 'commonName' ) DESC 'RFC4519: common name(s) for which the entity is known by' SUP name )
( 0.9.2342.19200300.100.1.1 NAME ( 'uid' 'userid' ) DESC 'RFC4519: user identifier' EQUALITY caseIgnoreMatch SUBSTR caseIgnoreSubstringsMatch SYNTAX 1.3.6.1.4.1.1466.115.121.1.15{256} )
( 1.3.6.1.1.1.1.0 NAME 'uidNumber' DESC 'RFC2307: An integer uniquely identifying a user in an administrative domain' EQUALITY integerMatch SYNTAX 1.3.6.1.4.1.1466.115.121.1.27 SINGLE-VALUE )
( 1.3.6.1.1.1.1.1 NAME 'gidNumber' DESC 'RFC2307: An integer uniquely identifying a group in an administrative domain' EQUALITY integerMatch SYNTAX 1.3.6.1.4.1.1466.115.121.1.27 SINGLE-VALUE )
( 2.5.4.35 NAME 'userPassword' DESC 'RFC4519/2307: password of user' EQUALITY octetStringMatch SYNTAX 1.3.6.1.4.1.1466.115.121.1.40{128} )
( 1.3.6.1.4.1.250.1.57 NAME 'labeledURI' DESC 'RFC2079: Uniform Resource Identifier with optional label' EQUALITY caseExactMatch SYNTAX 1.3.6.1.4.1.1466.115.121.1.15 )
( 2.5.4.13 NAME 'description' DESC 'RFC4519: descriptive information' EQUALITY caseIgnoreMatch SUBSTR caseIgnoreSubstringsMatch SYNTAX 1.3.6.1.4.1.1466.115.121.1.15{1024} )
( 2.5.4.34 NAME 'seeAlso' DESC 'RFC4519: DN of related object' SUP distinguishedName )
( 1.3.6.1.4.1.4203.1.12.2.3.0.78 NAME 'olcConfigFile' DESC 'File for slapd configuration directives' EQUALITY caseIgnoreMatch SYNTAX 1.3.6.1.4.1.1466.115.121.1.15 SINGLE-VALUE )
( 1.3.6.1.4.1.4203.1.12.2.3.0.79 NAME 'olcConfigDir' DESC 'Directory for slapd configuration backend' EQUALITY caseIgnoreMatch SYNTAX 1.3.6.1.4.1.1466.115.121.1.15 SINGLE-VALUE )
( 1.3.6.1.4.1.4203.1.12.2.3.0.1 NAME 'olcAccess' DESC 'Access Control List' EQUALITY caseIgnoreMatch SYNTAX 1.3.6.1.4.1.1466.115.121.1.15 X-ORDERED 'VALUES' )
( 1.3.6.1.4.1.4203.1.12.2.3.0.86 NAME 'olcAddContentAcl' DESC 'Check ACLs against content of Add ops' SYNTAX 1.3.6.1.4.1.1466.115.121.1.7 SINGLE-VALUE )
( 1.3.6.1.4.1.4203.1.12.2.3.0.2 NAME 'olcAllows' DESC 'Allowed set of deprecated features' EQUALITY caseIgnoreMatch SYNTAX 1.3.6.1.4.1.1466.115.121.1.15 )
( 1.3.6.1.4.1.4203.1.12.2.3.0.3 NAME 'olcArgsFile' DESC 'File for slapd command line options' EQUALITY caseIgnoreMatch SYNTAX 1.3.6.1.4.1.1466.115.121.1.15 SINGLE-VALUE )
( 1.3.6.1.4.1.4203.1.12.2.3.0.5 NAME 'olcAttributeOptions' EQUALITY caseIgnoreMatch SYNTAX 1.3.6.1.4.1.1466.115.121.1.15 )
( 1.3.6.1.4.1.4203.1.12.2.3.0.4 NAME 'olcAttributeTypes' DESC 'OpenLDAP attributeTypes' EQUALITY caseIgnoreMatch SYNTAX 1.3.6.1.4.1.1466.115.121.1.15 X-ORDERED 'VALUES' )
( 1.3.6.1.4.1.4203.1.12.2.3.0.6 NAME 'olcAuthIDRewrite' EQUALITY caseIgnoreMatch SYNTAX 1.3.6.1.4.1.1466.115.121.1.15 X-ORDERED 'VALUES' )
( 1.3.6.1.4.1.4203.1.12.2.3.0.7 NAME 'olcAuthzPolicy' EQUALITY caseIgnoreMatch SYNTAX 1.3.6.1.4.1.1466.115.121.1.15 SINGLE-VALUE )
( 1.3.6.1.4.1.4203.1.12.2.3.0.8 NAME 'olcAuthzRegexp' EQUALITY caseIgnoreMatch SYNTAX 1.3.6.1.4.1.1466.115.121.1.15 X-ORDERED 'VALUES' )
( 1.3.6.1.4.1.4203.1.12.2.3.0.9 NAME 'olcBackend' DESC 'A type of backend' EQUALITY caseIgnoreMatch SYNTAX 1.3.6.1.4.1.1466.115.121.1.15 SINGLE-VALUE X-ORDERED 'SIBLINGS' )
( 1.3.6.1.4.1.4203.1.12.2.3.0.10 NAME 'olcConcurrency' SYNTAX 1.3.6.1.4.1.1466.115.121.1.27 SINGLE-VALUE )
( 1.3.6.1.4.1.4203.1.12.2.3.0.11 NAME 'olcConnMaxPending' SYNTAX 1.3.6.1.4.1.1466.115.121.1.27 SINGLE-VALUE )
( 1.3.6.1.4.1.4203.1.12.2.3.0.12 NAME 'olcConnMaxPendingAuth' SYNTAX 1.3.6.1.4.1.1466.115.121.1.27 SINGLE-VALUE )
( 1.3.6.1.4.1.4203.1.12.2.3.0.13 NAME 'olcDatabase' DESC 'The backend type for a database instance' SUP olcBackend SINGLE-VALUE X-ORDERED 'SIBLINGS' )
( 1.3.6.1.4.1.4203.1.12.2.3.0.14 NAME 'olcDefaultSearchBase' SYNTAX 1.3.6.1.4.1.1466.115.121.1.12 SINGLE-VALUE )
( 1.3.6.1.4.1.4203.1.12.2.3.0.15 NAME 'olcDisallows' EQUALITY caseIgnoreMatch SYNTAX 1.3.6.1.4.1.1466.115.121.1.15 )
( 1.3.6.1.4.1.4203.1.12.2.3.0.16 NAME 'olcDitContentRules' DESC 'OpenLDAP DIT content rules' EQUALITY caseIgnoreMatch SYNTAX 1.3.6.1.4.1.1466.115.121.1.15 X-ORDERED 'VALUES' )
( 1.3.6.1.4.1.4203.1.12.2.3.0.17 NAME 'olcGentleHUP' SYNTAX 1.3.6.1.4.1.1466.115.121.1.7 SINGLE-VALUE )
( 1.3.6.1.4.1.4203.1.12.2.3.2.0.17 NAME 'olcHidden' SYNTAX 1.3.6.1.4.1.1466.115.121.1.7 SINGLE-VALUE )
( 1.3.6.1.4.1.4203.1.12.2.3.0.18 NAME 'olcIdleTimeout' SYNTAX 1.3.6.1.4.1.1466.115.121.1.27 SINGLE-VALUE )
( 1.3.6.1.4.1.4203.1.12.2.3.0.19 NAME 'olcInclude' SUP labeledURI )
( 1.3.6.1.4.1.4203.1.12.2.3.0.20 NAME 'olcIndexSubstrIfMinLen' SYNTAX 1.3.6.1.4.1.1466.115.121.1.27 SINGLE-VALUE )
( 1.3.6.1.4.1.4203.1.12.2.3.0.21 NAME 'olcIndexSubstrIfMaxLen' SYNTAX 1.3.6.1.4.1.1466.115.121.1.27 SINGLE-VALUE )
( 1.3.6.1.4.1.4203.1.12.2.3.0.22 NAME 'olcIndexSubstrAnyLen' SYNTAX 1.3.6.1.4.1.1466.115.121.1.27 SINGLE-VALUE )
( 1.3.6.1.4.1.4203.1.12.2.3.0.23 NAME 'olcIndexSubstrAnyStep' SYNTAX 1.3.6.1.4.1.1466.115.121.1.27 SINGLE-VALUE )
( 1.3.6.1.4.1.4203.1.12.2.3.0.84 NAME 'olcIndexIntLen' SYNTAX 1.3.6.1.4.1.1466.115.121.1.27 SINGLE-VALUE )
( 1.3.6.1.4.1.4203.1.12.2.3.2.0.4 NAME 'olcLastMod' SYNTAX 1.3.6.1.4.1.1466.115.121.1.7 SINGLE-VALUE )
( 1.3.6.1.4.1.4203.1.12.2.3.0.85 NAME 'olcLdapSyntaxes' DESC 'OpenLDAP ldapSyntax' EQUALITY caseIgnoreMatch SYNTAX 1.3.6.1.4.1.1466.115.121.1.15 X-ORDERED 'VALUES' )
( 1.3.6.1.4.1.4203.1.12.2.3.2.0.5 NAME 'olcLimits' EQUALITY caseIgnoreMatch SYNTAX 1.3.6.1.4.1.1466.115.121.1.15 X-ORDERED 'VALUES' )
( 1.3.6.1.4.1.4203.1.12.2.3.0.26 NAME 'olcLocalSSF' SYNTAX 1.3.6.1.4.1.1466.115.121.1.27 SINGLE-VALUE )
( 1.3.6.1.4.1.4203.1.12.2.3.0.27 NAME 'olcLogFile' SYNTAX 1.3.6.1.4.1.1466.115.121.1.15 SINGLE-VALUE )
( 1.3.6.1.4.1.4203.1.12.2.3.0.28 NAME 'olcLogLevel' EQUALITY caseIgnoreMatch SYNTAX 1.3.6.1.4.1.1466.115.121.1.15 )
( 1.3.6.1.4.1.4203.1.12.2.3.2.0.6 NAME 'olcMaxDerefDepth' SYNTAX 1.3.6.1.4.1.1466.115.121.1.27 SINGLE-VALUE )
( 1.3.6.1.4.1.4203.1.12.2.3.2.0.16 NAME 'olcMirrorMode' SYNTAX 1.3.6.1.4.1.1466.115.121.1.7 SINGLE-VALUE )
( 1.3.6.1.4.1.4203.1.12.2.3.0.30 NAME 'olcModuleLoad' EQUALITY caseIgnoreMatch SYNTAX 1.3.6.1.4.1.1466.115.121.1.15 X-ORDERED 'VALUES' )
( 1.3.6.1.4.1.4203.1.12.2.3.0.31 NAME 'olcModulePath' SYNTAX 1.3.6.1.4.1.1466.115.121.1.15 SINGLE-VALUE )
( 1.3.6.1.4.1.4203.1.12.2.3.2.0.18 NAME 'olcMonitoring' SYNTAX 1.3.6.1.4.1.1466.115.121.1.7 SINGLE-VALUE )
( 1.3.6.1.4.1.4203.1.12.2.3.0.32 NAME 'olcObjectClasses' DESC 'OpenLDAP object classes' EQUALITY caseIgnoreMatch SYNTAX 1.3.6.1.4.1.1466.115.121.1.15 X-ORDERED 'VALUES' )
( 1.3.6.1.4.1.4203.1.12.2.3.0.33 NAME 'olcObjectIdentifier' EQUALITY caseIgnoreMatch SYNTAX 1.3.6.1.4.1.1466.115.121.1.15 X-ORDERED 'VALUES' )
( 1.3.6.1.4.1.4203.1.12.2.3.0.34 NAME 'olcOverlay' SUP olcDatabase SINGLE-VALUE X-ORDERED 'SIBLINGS' )
( 1.3.6.1.4.1.4203.1.12.2.3.0.35 NAME 'olcPasswordCryptSaltFormat' SYNTAX 1.3.6.1.4.1.1466.115.121.1.15 SINGLE-VALUE )
( 1.3.6.1.4.1.4203.1.12.2.3.0.36 NAME 'olcPasswordHash' EQUALITY caseIgnoreMatch SYNTAX 1.3.6.1.4.1.1466.115.121.1.15 )
( 1.3.6.1.4.1.4203.1.12.2.3.0.37 NAME 'olcPidFile' SYNTAX 1.3.6.1.4.1.1466.115.121.1.15 SINGLE-VALUE )
( 1.3.6.1.4.1.4203.1.12.2.3.0.38 NAME 'olcPlugin' EQUALITY caseIgnoreMatch SYNTAX 1.3.6.1.4.1.1466.115.121.1.15 )
( 1.3.6.1.4.1.4203.1.12.2.3.0.39 NAME 'olcPluginLogFile' SYNTAX 1.3.6.1.4.1.1466.115.121.1.15 SINGLE-VALUE )
( 1.3.6.1.4.1.4203.1.12.2.3.0.40 NAME 'olcReadOnly' SYNTAX 1.3.6.1.4.1.1466.115.121.1.7 SINGLE-VALUE )
( 1.3.6.1.4.1.4203.1.12.2.3.0.41 NAME 'olcReferral' SUP labeledURI SINGLE-VALUE )
( 1.3.6.1.4.1.4203.1.12.2.3.2.0.7 NAME 'olcReplica' SUP labeledURI EQUALITY caseIgnoreMatch X-ORDERED 'VALUES' )
( 1.3.6.1.4.1.4203.1.12.2.3.0.43 NAME 'olcReplicaArgsFile' SYNTAX 1.3.6.1.4.1.1466.115.121.1.15 SINGLE-VALUE )
( 1.3.6.1.4.1.4203.1.12.2.3.0.44 NAME 'olcReplicaPidFile' SYNTAX 1.3.6.1.4.1.1466.115.121.1.15 SINGLE-VALUE )
( 1.3.6.1.4.1.4203.1.12.2.3.0.45 NAME 'olcReplicationInterval' SYNTAX 1.3.6.1.4.1.1466.115.121.1.27 SINGLE-VALUE )
( 1.3.6.1.4.1.4203.1.12.2.3.0.46 NAME 'olcReplogFile' SYNTAX 1.3.6.1.4.1.1466.115.121.1.15 SINGLE-VALUE )
( 1.3.6.1.4.1.4203.1.12.2.3.0.47 NAME 'olcRequires' EQUALITY caseIgnoreMatch SYNTAX 1.3.6.1.4.1.1466.115.121.1.15 )
( 1.3.6.1.4.1.4203.1.12.2.3.0.48 NAME 'olcRestrict' EQUALITY caseIgnoreMatch SYNTAX 1.3.6.1.4.1.1466.115.121.1.15 )
( 1.3.6.1.4.1.4203.1.12.2.3.0.49 NAME 'olcReverseLookup' SYNTAX 1.3.6.1.4.1.1466.115.121.1.7 SINGLE-VALUE )
( 1.3.6.1.4.1.4203.1.12.2.3.2.0.8 NAME 'olcRootDN' EQUALITY distinguishedNameMatch SYNTAX 1.3.6.1.4.1.1466.115.121.1.12 SINGLE-VALUE )
( 1.3.6.1.4.1.4203.1.12.2.3.0.51 NAME 'olcRootDSE' EQUALITY caseIgnoreMatch SYNTAX 1.3.6.1.4.1.1466.115.121.1.15 )
( 1.3.6.1.4.1.4203.1.12.2.3.2.0.9 NAME 'olcRootPW' SYNTAX 1.3.6.1.4.1.1466.115.121.1.15 SINGLE-VALUE )
( 1.3.6.1.4.1.4203.1.12.2.3.0.89 NAME 'olcSaslAuxprops' SYNTAX 1.3.6.1.4.1.1466.115.121.1.15 SINGLE-VALUE )
( 1.3.6.1.4.1.4203.1.12.2.3.0.53 NAME 'olcSaslHost' SYNTAX 1.3.6.1.4.1.1466.115.121.1.15 SINGLE-VALUE )
( 1.3.6.1.4.1.4203.1.12.2.3.0.54 NAME 'olcSaslRealm' SYNTAX 1.3.6.1.4.1.1466.115.121.1.15 SINGLE-VALUE )
( 1.3.6.1.4.1.4203.1.12.2.3.0.56 NAME 'olcSaslSecProps' SYNTAX 1.3.6.1.4.1.1466.115.121.1.15 SINGLE-VALUE )
( 1.3.6.1.4.1.4203.1.12.2.3.0.58 NAME 'olcSchemaDN' EQUALITY distinguishedNameMatch SYNTAX 1.3.6.1.4.1.1466.115.121.1.12 SINGLE-VALUE )
( 1.3.6.1.4.1.4203.1.12.2.3.0.59 NAME 'olcSecurity' EQUALITY caseIgnoreMatch SYNTAX 1.3.6.1.4.1.1466.115.121.1.15 )
( 1.3.6.1.4.1.4203.1.12.2.3.0.81 NAME 'olcServerID' EQUALITY caseIgnoreMatch SYNTAX 1.3.6.1.4.1.1466.115.121.1.15 )
( 1.3.6.1.4.1.4203.1.12.2.3.0.60 NAME 'olcSizeLimit' SYNTAX 1.3.6.1.4.1.1466.115.121.1.15 SINGLE-VALUE )
( 1.3.6.1.4.1.4203.1.12.2.3.0.61 NAME 'olcSockbufMaxIncoming' SYNTAX 1.3.6.1.4.1.1466.115.121.1.27 SINGLE-VALUE )
( 1.3.6.1.4.1.4203.1.12.2.3.0.62 NAME 'olcSockbufMaxIncomingAuth' SYNTAX 1.3.6.1.4.1.1466.115.121.1.27 SINGLE-VALUE )
( 1.3.6.1.4.1.4203.1.12.2.3.0.83 NAME 'olcSortVals' DESC 'Attributes whose values will always be sorted' EQUALITY caseIgnoreMatch SYNTAX 1.3.6.1.4.1.1466.115.121.1.15 )
( 1.3.6.1.4.1.4203.1.12.2.3.2.0.15 NAME 'olcSubordinate' SYNTAX 1.3.6.1.4.1.1466.115.121.1.15 SINGLE-VALUE )
( 1.3.6.1.4.1.4203.1.12.2.3.2.0.10 NAME 'olcSuffix' EQUALITY distinguishedNameMatch SYNTAX 1.3.6.1.4.1.1466.115.121.1.12 )
( 1.3.6.1.4.1.4203.1.12.2.3.2.0.19 NAME 'olcSyncUseSubentry' DESC 'Store sync context in a subentry' SYNTAX 1.3.6.1.4.1.1466.115.121.1.7 SINGLE-VALUE )
( 1.3.6.1.4.1.4203.1.12.2.3.2.0.11 NAME 'olcSyncrepl' EQUALITY caseIgnoreMatch SYNTAX 1.3.6.1.4.1.1466.115.121.1.15 X-ORDERED 'VALUES' )
( 1.3.6.1.4.1.4203.1.12.2.3.0.90 NAME 'olcTCPBuffer' DESC 'Custom TCP buffer size' SYNTAX 1.3.6.1.4.1.1466.115.121.1.15 )
( 1.3.6.1.4.1.4203.1.12.2.3.0.66 NAME 'olcThreads' SYNTAX 1.3.6.1.4.1.1466.115.121.1.27 SINGLE-VALUE )
( 1.3.6.1.4.1.4203.1.12.2.3.0.67 NAME 'olcTimeLimit' SYNTAX 1.3.6.1.4.1.1466.115.121.1.15 )
( 1.3.6.1.4.1.4203.1.12.2.3.0.68 NAME 'olcTLSCACertificateFile' SYNTAX 1.3.6.1.4.1.1466.115.121.1.15 SINGLE-VALUE )
( 1.3.6.1.4.1.4203.1.12.2.3.0.69 NAME 'olcTLSCACertificatePath' SYNTAX 1.3.6.1.4.1.1466.115.121.1.15 SINGLE-VALUE )
( 1.3.6.1.4.1.4203.1.12.2.3.0.70 NAME 'olcTLSCertificateFile' SYNTAX 1.3.6.1.4.1.1466.115.121.1.15 SINGLE-VALUE )
( 1.3.6.1.4.1.4203.1.12.2.3.0.71 NAME 'olcTLSCertificateKeyFile' SYNTAX 1.3.6.1.4.1.1466.115.121.1.15 SINGLE-VALUE )
( 1.3.6.1.4.1.4203.1.12.2.3.0.72 NAME 'olcTLSCipherSuite' SYNTAX 1.3.6.1.4.1.1466.115.121.1.15 SINGLE-VALUE )
( 1.3.6.1.4.1.4203.1.12.2.3.0.73 NAME 'olcTLSCRLCheck' SYNTAX 1.3.6.1.4.1.1466.115.121.1.15 SINGLE-VALUE )
( 1.3.6.1.4.1.4203.1.12.2.3.0.82 NAME 'olcTLSCRLFile' SYNTAX 1.3.6.1.4.1.1466.115.121.1.15 SINGLE-VALUE )
( 1.3.6.1.4.1.4203.1.12.2.3.0.74 NAME 'olcTLSRandFile' SYNTAX 1.3.6.1.4.1.1466.115.121.1.15 SINGLE-VALUE )
( 1.3.6.1.4.1.4203.1.12.2.3.0.75 NAME 'olcTLSVerifyClient' SYNTAX 1.3.6.1.4.1.1466.115.121.1.15 SINGLE-VALUE )
( 1.3.6.1.4.1.4203.1.12.2.3.0.77 NAME 'olcTLSDHParamFile' SYNTAX 1.3.6.1.4.1.1466.115.121.1.15 SINGLE-VALUE )
( 1.3.6.1.4.1.4203.1.12.2.3.0.87 NAME 'olcTLSProtocolMin' SYNTAX 1.3.6.1.4.1.1466.115.121.1.15 SINGLE-VALUE )
( 1.3.6.1.4.1.4203.1.12.2.3.0.80 NAME 'olcToolThreads' SYNTAX 1.3.6.1.4.1.1466.115.121.1.27 SINGLE-VALUE )
( 1.3.6.1.4.1.4203.1.12.2.3.2.0.12 NAME 'olcUpdateDN' SYNTAX 1.3.6.1.4.1.1466.115.121.1.12 SINGLE-VALUE )
( 1.3.6.1.4.1.4203.1.12.2.3.2.0.13 NAME 'olcUpdateRef' SUP labeledURI EQUALITY caseIgnoreMatch )
( 1.3.6.1.4.1.4203.1.12.2.3.0.88 NAME 'olcWriteTimeout' SYNTAX 1.3.6.1.4.1.1466.115.121.1.27 SINGLE-VALUE )
( 1.3.6.1.4.1.4203.1.12.2.3.2.0.1 NAME 'olcDbDirectory' DESC 'Directory for database content' EQUALITY caseIgnoreMatch SYNTAX 1.3.6.1.4.1.1466.115.121.1.15 SINGLE-VALUE )
( 1.3.6.1.4.1.4203.1.12.2.3.2.1.11 NAME 'olcDbCacheFree' DESC 'Number of extra entries to free when max is reached' SYNTAX 1.3.6.1.4.1.1466.115.121.1.27 SINGLE-VALUE )
( 1.3.6.1.4.1.4203.1.12.2.3.2.1.1 NAME 'olcDbCacheSize' DESC 'Entry cache size in entries' SYNTAX 1.3.6.1.4.1.1466.115.121.1.27 SINGLE-VALUE )
( 1.3.6.1.4.1.4203.1.12.2.3.2.1.2 NAME 'olcDbCheckpoint' DESC 'Database checkpoint interval in kbytes and minutes' SYNTAX 1.3.6.1.4.1.1466.115.121.1.15 SINGLE-VALUE )
( 1.3.6.1.4.1.4203.1.12.2.3.2.1.16 NAME 'olcDbChecksum' DESC 'Enable database checksum validation' SYNTAX 1.3.6.1.4.1.1466.115.121.1.7 SINGLE-VALUE )
( 1.3.6.1.4.1.4203.1.12.2.3.2.1.13 NAME 'olcDbCryptFile' DESC 'Pathname of file containing the DB encryption key' SYNTAX 1.3.6.1.4.1.1466.115.121.1.15 SINGLE-VALUE )
( 1.3.6.1.4.1.4203.1.12.2.3.2.1.14 NAME 'olcDbCryptKey' DESC 'DB encryption key' SYNTAX 1.3.6.1.4.1.1466.115.121.1.40 SINGLE-VALUE )
( 1.3.6.1.4.1.4203.1.12.2.3.2.1.3 NAME 'olcDbConfig' DESC 'BerkeleyDB DB_CONFIG configuration directives' SYNTAX 1.3.6.1.4.1.1466.115.121.1.26 X-ORDERED 'VALUES' )
( 1.3.6.1.4.1.4203.1.12.2.3.2.1.4 NAME 'olcDbNoSync' DESC 'Disable synchronous database writes' SYNTAX 1.3.6.1.4.1.1466.115.121.1.7 SINGLE-VALUE )
( 1.3.6.1.4.1.4203.1.12.2.3.2.1.15 NAME 'olcDbPageSize' DESC 'Page size of specified DB, in Kbytes' EQUALITY caseExactMatch SYNTAX 1.3.6.1.4.1.1466.115.121.1.15 )
( 1.3.6.1.4.1.4203.1.12.2.3.2.1.5 NAME 'olcDbDirtyRead' DESC 'Allow reads of uncommitted data' SYNTAX 1.3.6.1.4.1.1466.115.121.1.7 SINGLE-VALUE )
( 1.3.6.1.4.1.4203.1.12.2.3.2.1.12 NAME 'olcDbDNcacheSize' DESC 'DN cache size' SYNTAX 1.3.6.1.4.1.1466.115.121.1.27 SINGLE-VALUE )
( 1.3.6.1.4.1.4203.1.12.2.3.2.1.6 NAME 'olcDbIDLcacheSize' DESC 'IDL cache size in IDLs' SYNTAX 1.3.6.1.4.1.1466.115.121.1.27 SINGLE-VALUE )
( 1.3.6.1.4.1.4203.1.12.2.3.2.0.2 NAME 'olcDbIndex' DESC 'Attribute index parameters' EQUALITY caseIgnoreMatch SYNTAX 1.3.6.1.4.1.1466.115.121.1.15 )
( 1.3.6.1.4.1.4203.1.12.2.3.2.1.7 NAME 'olcDbLinearIndex' DESC 'Index attributes one at a time' SYNTAX 1.3.6.1.4.1.1466.115.121.1.7 SINGLE-VALUE )
( 1.3.6.1.4.1.4203.1.12.2.3.2.1.8 NAME 'olcDbLockDetect' DESC 'Deadlock detection algorithm' SYNTAX 1.3.6.1.4.1.1466.115.121.1.15 SINGLE-VALUE )
( 1.3.6.1.4.1.4203.1.12.2.3.2.0.3 NAME 'olcDbMode' DESC 'Unix permissions of database files' SYNTAX 1.3.6.1.4.1.1466.115.121.1.15 SINGLE-VALUE )
( 1.3.6.1.4.1.4203.1.12.2.3.2.1.9 NAME 'olcDbSearchStack' DESC 'Depth of search stack in IDLs' SYNTAX 1.3.6.1.4.1.1466.115.121.1.27 SINGLE-VALUE )
( 1.3.6.1.4.1.4203.1.12.2.3.2.1.10 NAME 'olcDbShmKey' DESC 'Key for shared memory region' SYNTAX 1.3.6.1.4.1.1466.115.121.1.27 SINGLE-VALUE )
( 1.3.6.1.4.1.4203.1.12.2.3.3.1.1 NAME 'olcSpCheckpoint' DESC 'ContextCSN checkpoint interval in ops and minutes' SYNTAX 1.3.6.1.4.1.1466.115.121.1.15 SINGLE-VALUE )
( 1.3.6.1.4.1.4203.1.12.2.3.3.1.2 NAME 'olcSpSessionlog' DESC 'Session log size in ops' SYNTAX 1.3.6.1.4.1.1466.115.121.1.27 SINGLE-VALUE )
( 1.3.6.1.4.1.4203.1.12.2.3.3.1.3 NAME 'olcSpNoPresent' DESC 'Omit Present phase processing' SYNTAX 1.3.6.1.4.1.1466.115.121.1.7 SINGLE-VALUE )
( 1.3.6.1.4.1.4203.1.12.2.3.3.1.4 NAME 'olcSpReloadHint' DESC 'Observe Reload Hint in Request control' SYNTAX 1.3.6.1.4.1.1466.115.121.1.7 SINGLE-VALUE )
( 1.3.6.1.4.1.42.2.27.8.1.16 NAME 'pwdChangedTime' DESC 'The time the password was last changed' EQUALITY generalizedTimeMatch ORDERING generalizedTimeOrderingMatch SYNTAX 1.3.6.1.4.1.1466.115.121.1.24 SINGLE-VALUE NO-USER-MODIFICATION USAGE directoryOperation )
( 1.3.6.1.4.1.42.2.27.8.1.17 NAME 'pwdAccountLockedTime' DESC 'The time an user account was locked' EQUALITY generalizedTimeMatch ORDERING generalizedTimeOrderingMatch SYNTAX 1.3.6.1.4.1.1466.115.121.1.24 SINGLE-VALUE USAGE directoryOperation )
( 1.3.6.1.4.1.42.2.27.8.1.19 NAME 'pwdFailureTime' DESC 'The timestamps of the last consecutive authentication failures' EQUALITY generalizedTimeMatch ORDERING generalizedTimeOrderingMatch SYNTAX 1.3.6.1.4.1.1466.115.121.1.24 NO-USER-MODIFICATION USAGE directoryOperation )
( 1.3.6.1.4.1.42.2.27.8.1.20 NAME 'pwdHistory' DESC 'The history of users passwords' EQUALITY octetStringMatch SYNTAX 1.3.6.1.4.1.1466.115.121.1.40 NO-USER-MODIFICATION USAGE directoryOperation )
( 1.3.6.1.4.1.42.2.27.8.1.21 NAME 'pwdGraceUseTime' DESC 'The timestamps of the grace login once the password has expired' EQUALITY generalizedTimeMatch SYNTAX 1.3.6.1.4.1.1466.115.121.1.24 NO-USER-MODIFICATION USAGE directoryOperation )
( 1.3.6.1.4.1.42.2.27.8.1.22 NAME 'pwdReset' DESC 'The indication that the password has been reset' EQUALITY booleanMatch SYNTAX 1.3.6.1.4.1.1466.115.121.1.7 SINGLE-VALUE USAGE directoryOperation )
( 1.3.6.1.4.1.42.2.27.8.1.23 NAME 'pwdPolicySubentry' DESC 'The pwdPolicy subentry in effect for this object' EQUALITY distinguishedNameMatch SYNTAX 1.3.6.1.4.1.1466.115.121.1.12 SINGLE-VALUE USAGE directoryOperation )
( 1.3.6.1.4.1.4203.1.12.2.3.3.12.1 NAME 'olcPPolicyDefault' DESC 'DN of a pwdPolicy object for uncustomized objects' SYNTAX 1.3.6.1.4.1.1466.115.121.1.12 SINGLE-VALUE )
( 1.3.6.1.4.1.4203.1.12.2.3.3.12.2 NAME 'olcPPolicyHashCleartext' DESC 'Hash passwords on add or modify' SYNTAX 1.3.6.1.4.1.1466.115.121.1.7 SINGLE-VALUE )
( 1.3.6.1.4.1.4203.1.12.2.3.3.12.4 NAME 'olcPPolicyForwardUpdates' DESC 'Allow policy state updates to be forwarded via updateref' SYNTAX 1.3.6.1.4.1.1466.115.121.1.7 SINGLE-VALUE )
( 1.3.6.1.4.1.4203.1.12.2.3.3.12.3 NAME 'olcPPolicyUseLockout' DESC 'Warn clients with AccountLocked' SYNTAX 1.3.6.1.4.1.1466.115.121.1.7 SINGLE-VALUE )
( 1.2.840.113556.1.2.102 NAME 'memberOf' DESC 'Group that the entry belongs to' EQUALITY distinguishedNameMatch SYNTAX 1.3.6.1.4.1.1466.115.121.1.12 USAGE dSAOperation X-ORIGIN 'iPlanet Delegated Administrator' )
( 1.3.6.1.4.1.4203.1.12.2.3.3.18.0 NAME 'olcMemberOfDN' DESC 'DN to be used as modifiersName' SYNTAX 1.3.6.1.4.1.1466.115.121.1.12 SINGLE-VALUE )
( 1.3.6.1.4.1.4203.1.12.2.3.3.18.1 NAME 'olcMemberOfDangling' DESC 'Behavior with respect to dangling members, constrained to ignore, drop, error' SYNTAX 1.3.6.1.4.1.1466.115.121.1.15 SINGLE-VALUE )
( 1.3.6.1.4.1.4203.1.12.2.3.3.18.2 NAME 'olcMemberOfRefInt' DESC 'Take care of referential integrity' SYNTAX 1.3.6.1.4.1.1466.115.121.1.7 SINGLE-VALUE )
( 1.3.6.1.4.1.4203.1.12.2.3.3.18.3 NAME 'olcMemberOfGroupOC' DESC 'Group objectClass' SYNTAX 1.3.6.1.4.1.1466.115.121.1.15 SINGLE-VALUE )
( 1.3.6.1.4.1.4203.1.12.2.3.3.18.4 NAME 'olcMemberOfMemberAD' DESC 'member attribute' SYNTAX 1.3.6.1.4.1.1466.115.121.1.15 SINGLE-VALUE )
( 1.3.6.1.4.1.4203.1.12.2.3.3.18.5 NAME 'olcMemberOfMemberOfAD' DESC 'memberOf attribute' SYNTAX 1.3.6.1.4.1.1466.115.121.1.15 SINGLE-VALUE )
( 1.3.6.1.4.1.4203.1.12.2.3.3.18.7 NAME 'olcMemberOfDanglingError' DESC 'Error code returned in case of dangling back reference' SYNTAX 1.3.6.1.4.1.1466.115.121.1.15 SINGLE-VALUE )
( 1.3.6.1.4.1.4203.1.12.2.3.3.8.1 NAME 'olcDlAttrSet' DESC 'Dynamic list: <group objectClass>, <URL attributeDescription>, <member attributeDescription>' EQUALITY caseIgnoreMatch SYNTAX 1.3.6.1.4.1.1466.115.121.1.15 X-ORDERED 'VALUES' )
( 2.5.4.2 NAME 'knowledgeInformation' DESC 'RFC2256: knowledge information' EQUALITY caseIgnoreMatch SYNTAX 1.3.6.1.4.1.1466.115.121.1.15{32768} )
( 2.5.4.4 NAME ( 'sn' 'surname' ) DESC 'RFC2256: last (family) name(s) for which the entity is known by' SUP name )
( 2.5.4.5 NAME 'serialNumber' DESC 'RFC2256: serial number of the entity' EQUALITY caseIgnoreMatch SUBSTR caseIgnoreSubstringsMatch SYNTAX 1.3.6.1.4.1.1466.115.121.1.44{64} )
( 2.5.4.6 NAME ( 'c' 'countryName' ) DESC 'RFC4519: two-letter ISO-3166 country code' SUP name SYNTAX 1.3.6.1.4.1.1466.115.121.1.11 SINGLE-VALUE )
( 2.5.4.7 NAME ( 'l' 'localityName' ) DESC 'RFC2256: locality which this object resides in' SUP name )
( 2.5.4.8 NAME ( 'st' 'stateOrProvinceName' ) DESC 'RFC2256: state or province which this object resides in' SUP name )
( 2.5.4.9 NAME ( 'street' 'streetAddress' ) DESC 'RFC2256: street address of this object' EQUALITY caseIgnoreMatch SUBSTR caseIgnoreSubstringsMatch SYNTAX 1.3.6.1.4.1.1466.115.121.1.15{128} )
( 2.5.4.10 NAME ( 'o' 'organizationName' ) DESC 'RFC2256: organization this object belongs to' SUP name )
( 2.5.4.11 NAME ( 'ou' 'organizationalUnitName' ) DESC 'RFC2256: organizational unit this object belongs to' SUP name )
( 2.5.4.12 NAME 'title' DESC 'RFC2256: title associated with the entity' SUP name )
( 2.5.4.14 NAME 'searchGuide' DESC 'RFC2256: search guide, deprecated by enhancedSearchGuide' SYNTAX 1.3.6.1.4.1.1466.115.121.1.25 )
( 2.5.4.15 NAME 'businessCategory' DESC 'RFC2256: business category' EQUALITY caseIgnoreMatch SUBSTR caseIgnoreSubstringsMatch SYNTAX 1.3.6.1.4.1.1466.115.121.1.15{128} )
( 2.5.4.16 NAME 'postalAddress' DESC 'RFC2256: postal address' EQUALITY caseIgnoreListMatch SUBSTR caseIgnoreListSubstringsMatch SYNTAX 1.3.6.1.4.1.1466.115.121.1.41 )
( 2.5.4.17 NAME 'postalCode' DESC 'RFC2256: postal code' EQUALITY caseIgnoreMatch SUBSTR caseIgnoreSubstringsMatch SYNTAX 1.3.6.1.4.1.1466.115.121.1.15{40} )
( 2.5.4.18 NAME 'postOfficeBox' DESC 'RFC2256: Post Office Box' EQUALITY caseIgnoreMatch SUBSTR caseIgnoreSubstringsMatch SYNTAX 1.3.6.1.4.1.1466.115.121.1.15{40} )
( 2.5.4.19 NAME 'physicalDeliveryOfficeName' DESC 'RFC2256: Physical Delivery Office Name' EQUALITY caseIgnoreMatch SUBSTR caseIgnoreSubstringsMatch SYNTAX 1.3.6.1.4.1.1466.115.121.1.15{128} )
( 2.5.4.20 NAME 'telephoneNumber' DESC 'RFC2256: Telephone Number' EQUALITY telephoneNumberMatch SUBSTR telephoneNumberSubstringsMatch SYNTAX 1.3.6.1.4.1.1466.115.121.1.50{32} )
( 2.5.4.21 NAME 'telexNumber' DESC 'RFC2256: Telex Number' SYNTAX 1.3.6.1.4.1.1466.115.121.1.52 )
( 2.5.4.22 NAME 'teletexTerminalIdentifier' DESC 'RFC2256: Teletex Terminal Identifier' SYNTAX 1.3.6.1.4.1.1466.115.121.1.51 )
( 2.5.4.23 NAME ( 'facsimileTelephoneNumber' 'fax' ) DESC 'RFC2256: Facsimile (Fax) Telephone Number' SYNTAX 1.3.6.1.4.1.1466.115.121.1.22 )
( 2.5.4.24 NAME 'x121Address' DESC 'RFC2256: X.121 Address' EQUALITY numericStringMatch SUBSTR numericStringSubstringsMatch SYNTAX 1.3.6.1.4.1.1466.115.121.1.36{15} )
( 2.5.4.25 NAME 'internationaliSDNNumber' DESC 'RFC2256: international ISDN number' EQUALITY numericStringMatch SUBSTR numericStringSubstringsMatch SYNTAX 1.3.6.1.4.1.1466.115.121.1.36{16} )
( 2.5.4.26 NAME 'registeredAddress' DESC 'RFC2256: registered postal address' SUP postalAddress SYNTAX 1.3.6.1.4.1.1466.115.121.1.41 )
( 2.5.4.27 NAME 'destinationIndicator' DESC 'RFC2256: destination indicator' EQUALITY caseIgnoreMatch SUBSTR caseIgnoreSubstringsMatch SYNTAX 1.3.6.1.4.1.1466.115.121.1.44{128} )
( 2.5.4.28 NAME 'preferredDeliveryMethod' DESC 'RFC2256: preferred delivery method' SYNTAX 1.3.6.1.4.1.1466.115.121.1.14 SINGLE-VALUE )
( 2.5.4.29 NAME 'presentationAddress' DESC 'RFC2256: presentation address' EQUALITY presentationAddressMatch SYNTAX 1.3.6.1.4.1.1466.115.121.1.43 SINGLE-VALUE )
( 2.5.4.30 NAME 'supportedApplicationContext' DESC 'RFC2256: supported application context' EQUALITY objectIdentifierMatch SYNTAX 1.3.6.1.4.1.1466.115.121.1.38 )
( 2.5.4.31 NAME 'member' DESC 'RFC2256: member of a group' SUP distinguishedName )
( 2.5.4.32 NAME 'owner' DESC 'RFC2256: owner (of the object)' SUP distinguishedName )
( 2.5.4.33 NAME 'roleOccupant' DESC 'RFC2256: occupant of role' SUP distinguishedName )
( 2.5.4.36 NAME 'userCertificate' DESC 'RFC2256: X.509 user certificate, use ;binary' EQUALITY certificateExactMatch SYNTAX 1.3.6.1.4.1.1466.115.121.1.8 )
( 2.5.4.37 NAME 'cACertificate' DESC 'RFC2256: X.509 CA certificate, use ;binary' EQUALITY certificateExactMatch SYNTAX 1.3.6.1.4.1.1466.115.121.1.8 )
( 2.5.4.38 NAME 'authorityRevocationList' DESC 'RFC2256: X.509 authority revocation list, use ;binary' SYNTAX 1.3.6.1.4.1.1466.115.121.1.9 )
( 2.5.4.39 NAME 'certificateRevocationList' DESC 'RFC2256: X.509 certificate revocation list, use ;binary' SYNTAX 1.3.6.1.4.1.1466.115.121.1.9 )
( 2.5.4.40 NAME 'crossCertificatePair' DESC 'RFC2256: X.509 cross certificate pair, use ;binary' SYNTAX 1.3.6.1.4.1.1466.115.121.1.10 )
( 2.5.4.42 NAME ( 'givenName' 'gn' ) DESC 'RFC2256: first name(s) for which the entity is known by' SUP name )
( 2.5.4.43 NAME 'initials' DESC 'RFC2256: initials of some or all of names, but not the surname(s).' SUP name )
( 2.5.4.44 NAME 'generationQualifier' DESC 'RFC2256: name qualifier indicating a generation' SUP name )
( 2.5.4.45 NAME 'x500UniqueIdentifier' DESC 'RFC2256: X.500 unique identifier' EQUALITY bitStringMatch SYNTAX 1.3.6.1.4.1.1466.115.121.1.6 )
( 2.5.4.46 NAME 'dnQualifier' DESC 'RFC2256: DN qualifier' EQUALITY caseIgnoreMatch ORDERING caseIgnoreOrderingMatch SUBSTR caseIgnoreSubstringsMatch SYNTAX 1.3.6.1.4.1.1466.115.121.1.44 )
( 2.5.4.47 NAME 'enhancedSearchGuide' DESC 'RFC2256: enhanced search guide' SYNTAX 1.3.6.1.4.1.1466.115.121.1.21 )
( 2.5.4.48 NAME 'protocolInformation' DESC 'RFC2256: protocol information' EQUALITY protocolInformationMatch SYNTAX 1.3.6.1.4.1.1466.115.121.1.42 )
( 2.5.4.50 NAME 'uniqueMember' DESC 'RFC2256: unique member of a group' EQUALITY uniqueMemberMatch SYNTAX 1.3.6.1.4.1.1466.115.121.1.34 )
( 2.5.4.51 NAME 'houseIdentifier' DESC 'RFC2256: house identifier' EQUALITY caseIgnoreMatch SUBSTR caseIgnoreSubstringsMatch SYNTAX 1.3.6.1.4.1.1466.115.121.1.15{32768} )
( 2.5.4.52 NAME 'supportedAlgorithms' DESC 'RFC2256: supported algorithms' SYNTAX 1.3.6.1.4.1.1466.115.121.1.49 )
( 2.5.4.53 NAME 'deltaRevocationList' DESC 'RFC2256: delta revocation list; use ;binary' SYNTAX 1.3.6.1.4.1.1466.115.121.1.9 )
( 2.5.4.54 NAME 'dmdName' DESC 'RFC2256: name of DMD' SUP name )
( 2.5.4.65 NAME 'pseudonym' DESC 'X.520(4th): pseudonym for the object' SUP name )
( 0.9.2342.19200300.100.1.3 NAME ( 'mail' 'rfc822Mailbox' ) DESC 'RFC1274: RFC822 Mailbox' EQUALITY caseIgnoreIA5Match SUBSTR caseIgnoreIA5SubstringsMatch SYNTAX 1.3.6.1.4.1.1466.115.121.1.26{256} )
( 0.9.2342.19200300.100.1.25 NAME ( 'dc' 'domainComponent' ) DESC 'RFC1274/2247: domain component' EQUALITY caseIgnoreIA5Match SUBSTR caseIgnoreIA5SubstringsMatch SYNTAX 1.3.6.1.4.1.1466.115.121.1.26 SINGLE-VALUE )
( 0.9.2342.19200300.100.1.37 NAME 'associatedDomain' DESC 'RFC1274: domain associated with object' EQUALITY caseIgnoreIA5Match SUBSTR caseIgnoreIA5SubstringsMatch SYNTAX 1.3.6.1.4.1.1466.115.121.1.26 )
( 1.2.840.113549.1.9.1 NAME ( 'email' 'emailAddress' 'pkcs9email' ) DESC 'RFC3280: legacy attribute for email addresses in DNs' EQUALITY caseIgnoreIA5Match SUBSTR caseIgnoreIA5SubstringsMatch SYNTAX 1.3.6.1.4.1.1466.115.121.1.26{128} )
( 0.9.2342.19200300.100.1.2 NAME 'textEncodedORAddress' EQUALITY caseIgnoreMatch SUBSTR caseIgnoreSubstringsMatch SYNTAX 1.3.6.1.4.1.1466.115.121.1.15{256} )
( 0.9.2342.19200300.100.1.4 NAME 'info' DESC 'RFC1274: general information' EQUALITY caseIgnoreMatch SUBSTR caseIgnoreSubstringsMatch SYNTAX 1.3.6.1.4.1.1466.115.121.1.15{2048} )
( 0.9.2342.19200300.100.1.5 NAME ( 'drink' 'favouriteDrink' ) DESC 'RFC1274: favorite drink' EQUALITY caseIgnoreMatch SUBSTR caseIgnoreSubstringsMatch SYNTAX 1.3.6.1.4.1.1466.115.121.1.15{256} )
( 0.9.2342.19200300.100.1.6 NAME 'roomNumber' DESC 'RFC1274: room number' EQUALITY caseIgnoreMatch SUBSTR caseIgnoreSubstringsMatch SYNTAX 1.3.6.1.4.1.1466.115.121.1.15{256} )
( 0.9.2342.19200300.100.1.7 NAME 'photo' DESC 'RFC1274: photo (G3 fax)' SYNTAX 1.3.6.1.4.1.1466.115.121.1.23{25000} )
( 0.9.2342.19200300.100.1.8 NAME 'userClass' DESC 'RFC1274: category of user' EQUALITY caseIgnoreMatch SUBSTR caseIgnoreSubstringsMatch SYNTAX 1.3.6.1.4.1.1466.115.121.1.15{256} )
( 0.9.2342.19200300.100.1.9 NAME 'host' DESC 'RFC1274: host computer' EQUALITY caseIgnoreMatch SUBSTR caseIgnoreSubstringsMatch SYNTAX 1.3.6.1.4.1.1466.115.121.1.15{256} )
( 0.9.2342.19200300.100.1.10 NAME 'manager' DESC 'RFC1274: DN of manager' EQUALITY distinguishedNameMatch SYNTAX 1.3.6.1.4.1.1466.115.121.1.12 )
( 0.9.2342.19200300.100.1.11 NAME 'documentIdentifier' DESC 'RFC1274: unique identifier of document' EQUALITY caseIgnoreMatch SUBSTR caseIgnoreSubstringsMatch SYNTAX 1.3.6.1.4.1.1466.115.121.1.15{256} )
( 0.9.2342.19200300.100.1.12 NAME 'documentTitle' DESC 'RFC1274: title of document' EQUALITY caseIgnoreMatch SUBSTR caseIgnoreSubstringsMatch SYNTAX 1.3.6.1.4.1.1466.115.121.1.15{256} )
( 0.9.2342.19200300.100.1.13 NAME 'documentVersion' DESC 'RFC1274: version of document' EQUALITY caseIgnoreMatch SUBSTR caseIgnoreSubstringsMatch SYNTAX 1.3.6.1.4.1.1466.115.121.1.15{256} )
( 0.9.2342.19200300.100.1.14 NAME 'documentAuthor' DESC 'RFC1274: DN of author of document' EQUALITY distinguishedNameMatch SYNTAX 1.3.6.1.4.1.1466.115.121.1.12 )
( 0.9.2342.19200300.100.1.15 NAME 'documentLocation' DESC 'RFC1274: location of document original' EQUALITY caseIgnoreMatch SUBSTR caseIgnoreSubstringsMatch SYNTAX 1.3.6.1.4.1.1466.115.121.1.15{256} )
( 0.9.2342.19200300.100.1.20 NAME ( 'homePhone' 'homeTelephoneNumber' ) DESC 'RFC1274: home telephone number' EQUALITY telephoneNumberMatch SUBSTR telephoneNumberSubstringsMatch SYNTAX 1.3.6.1.4.1.1466.115.121.1.50 )
( 0.9.2342.19200300.100.1.21 NAME 'secretary' DESC 'RFC1274: DN of secretary' EQUALITY distinguishedNameMatch SYNTAX 1.3.6.1.4.1.1466.115.121.1.12 )
( 0.9.2342.19200300.100.1.22 NAME 'otherMailbox' SYNTAX 1.3.6.1.4.1.1466.115.121.1.39 )
( 0.9.2342.19200300.100.1.26 NAME 'aRecord' EQUALITY caseIgnoreIA5Match SYNTAX 1.3.6.1.4.1.1466.115.121.1.26 )
( 0.9.2342.19200300.100.1.27 NAME 'mDRecord' EQUALITY caseIgnoreIA5Match SYNTAX 1.3.6.1.4.1.1466.115.121.1.26 )
( 0.9.2342.19200300.100.1.28 NAME 'mXRecord' EQUALITY caseIgnoreIA5Match SYNTAX 1.3.6.1.4.1.1466.115.121.1.26 )
( 0.9.2342.19200300.100.1.29 NAME 'nSRecord' EQUALITY caseIgnoreIA5Match SYNTAX 1.3.6.1.4.1.1466.115.121.1.26 )
( 0.9.2342.19200300.100.1.30 NAME 'sOARecord' EQUALITY caseIgnoreIA5Match SYNTAX 1.3.6.1.4.1.1466.115.121.1.26 )
( 0.9.2342.19200300.100.1.31 NAME 'cNAMERecord' EQUALITY caseIgnoreIA5Match SYNTAX 1.3.6.1.4.1.1466.115.121.1.26 )
( 0.9.2342.19200300.100.1.38 NAME 'associatedName' DESC 'RFC1274: DN of entry associated with domain' EQUALITY distinguishedNameMatch SYNTAX 1.3.6.1.4.1.1466.115.121.1.12 )
( 0.9.2342.19200300.100.1.39 NAME 'homePostalAddress' DESC 'RFC1274: home postal address' EQUALITY caseIgnoreListMatch SUBSTR caseIgnoreListSubstringsMatch SYNTAX 1.3.6.1.4.1.1466.115.121.1.41 )
( 0.9.2342.19200300.100.1.40 NAME 'personalTitle' DESC 'RFC1274: personal title' EQUALITY caseIgnoreMatch SUBSTR caseIgnoreSubstringsMatch SYNTAX 1.3.6.1.4.1.1466.115.121.1.15{256} )
( 0.9.2342.19200300.100.1.41 NAME ( 'mobile' 'mobileTelephoneNumber' ) DESC 'RFC1274: mobile telephone number' EQUALITY telephoneNumberMatch SUBSTR telephoneNumberSubstringsMatch SYNTAX 1.3.6.1.4.1.1466.115.121.1.50 )
( 0.9.2342.19200300.100.1.42 NAME ( 'pager' 'pagerTelephoneNumber' ) DESC 'RFC1274: pager telephone number' EQUALITY telephoneNumberMatch SUBSTR telephoneNumberSubstringsMatch SYNTAX 1.3.6.1.4.1.1466.115.121.1.50 )
( 0.9.2342.19200300.100.1.43 NAME ( 'co' 'friendlyCountryName' ) DESC 'RFC1274: friendly country name' EQUALITY caseIgnoreMatch SUBSTR caseIgnoreSubstringsMatch SYNTAX 1.3.6.1.4.1.1466.115.121.1.15 )
( 0.9.2342.19200300.100.1.44 NAME 'uniqueIdentifier' DESC 'RFC1274: unique identifer' EQUALITY caseIgnoreMatch SYNTAX 1.3.6.1.4.1.1466.115.121.1.15{256} )
( 0.9.2342.19200300.100.1.45 NAME 'organizationalStatus' DESC 'RFC1274: organizational status' EQUALITY caseIgnoreMatch SUBSTR caseIgnoreSubstringsMatch SYNTAX 1.3.6.1.4.1.1466.115.121.1.15{256} )
( 0.9.2342.19200300.100.1.46 NAME 'janetMailbox' DESC 'RFC1274: Janet mailbox' EQUALITY caseIgnoreIA5Match SUBSTR caseIgnoreIA5SubstringsMatch SYNTAX 1.3.6.1.4.1.1466.115.121.1.26{256} )
( 0.9.2342.19200300.100.1.47 NAME 'mailPreferenceOption' DESC 'RFC1274: mail preference option' SYNTAX 1.3.6.1.4.1.1466.115.121.1.27 )
( 0.9.2342.19200300.100.1.48 NAME 'buildingName' DESC 'RFC1274: name of building' EQUALITY caseIgnoreMatch SUBSTR caseIgnoreSubstringsMatch SYNTAX 1.3.6.1.4.1.1466.115.121.1.15{256} )
( 0.9.2342.19200300.100.1.49 NAME 'dSAQuality' DESC 'RFC1274: DSA Quality' SYNTAX 1.3.6.1.4.1.1466.115.121.1.19 SINGLE-VALUE )
( 0.9.2342.19200300.100.1.50 NAME 'singleLevelQuality' DESC 'RFC1274: Single Level Quality' SYNTAX 1.3.6.1.4.1.1466.115.121.1.13 SINGLE-VALUE )
( 0.9.2342.19200300.100.1.51 NAME 'subtreeMinimumQuality' DESC 'RFC1274: Subtree Mininum Quality' SYNTAX 1.3.6.1.4.1.1466.115.121.1.13 SINGLE-VALUE )
( 0.9.2342.19200300.100.1.52 NAME 'subtreeMaximumQuality' DESC 'RFC1274: Subtree Maximun Quality' SYNTAX 1.3.6.1.4.1.1466.115.121.1.13 SINGLE-VALUE )
( 0.9.2342.19200300.100.1.53 NAME 'personalSignature' DESC 'RFC1274: Personal Signature (G3 fax)' SYNTAX 1.3.6.1.4.1.1466.115.121.1.23 )
( 0.9.2342.19200300.100.1.54 NAME 'dITRedirect' DESC 'RFC1274: DIT Redirect' EQUALITY distinguishedNameMatch SYNTAX 1.3.6.1.4.1.1466.115.121.1.12 )
( 0.9.2342.19200300.100.1.55 NAME 'audio' DESC 'RFC1274: audio (u-law)' SYNTAX 1.3.6.1.4.1.1466.115.121.1.4{25000} )
( 0.9.2342.19200300.100.1.56 NAME 'documentPublisher' DESC 'RFC1274: publisher of document' EQUALITY caseIgnoreMatch SUBSTR caseIgnoreSubstringsMatch SYNTAX 1.3.6.1.4.1.1466.115.121.1.15 )
( 2.16.840.1.113730.3.1.1 NAME 'carLicense' DESC 'RFC2798: vehicle license or registration plate' EQUALITY caseIgnoreMatch SUBSTR caseIgnoreSubstringsMatch SYNTAX 1.3.6.1.4.1.1466.115.121.1.15 )
( 2.16.840.1.113730.3.1.2 NAME 'departmentNumber' DESC 'RFC2798: identifies a department within an organization' EQUALITY caseIgnoreMatch SUBSTR caseIgnoreSubstringsMatch SYNTAX 1.3.6.1.4.1.1466.115.121.1.15 )
( 2.16.840.1.113730.3.1.241 NAME 'displayName' DESC 'RFC2798: preferred name to be used when displaying entries' EQUALITY caseIgnoreMatch SUBSTR caseIgnoreSubstringsMatch SYNTAX 1.3.6.1.4.1.1466.115.121.1.15 SINGLE-VALUE )
( 2.16.840.1.113730.3.1.3 NAME 'employeeNumber' DESC 'RFC2798: numerically identifies an employee within an organization' EQUALITY caseIgnoreMatch SUBSTR caseIgnoreSubstringsMatch SYNTAX 1.3.6.1.4.1.1466.115.121.1.15 SINGLE-VALUE )
( 2.16.840.1.113730.3.1.4 NAME 'employeeType' DESC 'RFC2798: type of employment for a person' EQUALITY caseIgnoreMatch SUBSTR caseIgnoreSubstringsMatch SYNTAX 1.3.6.1.4.1.1466.115.121.1.15 )
( 0.9.2342.19200300.100.1.60 NAME 'jpegPhoto' DESC 'RFC2798: a JPEG image' SYNTAX 1.3.6.1.4.1.1466.115.121.1.28 )
( 2.16.840.1.113730.3.1.39 NAME 'preferredLanguage' DESC 'RFC2798: preferred written or spoken language for a person' EQUALITY caseIgnoreMatch SUBSTR caseIgnoreSubstringsMatch SYNTAX 1.3.6.1.4.1.1466.115.121.1.15 SINGLE-VALUE )
( 2.16.840.1.113730.3.1.40 NAME 'userSMIMECertificate' DESC 'RFC2798: PKCS#7 SignedData used to support S/MIME' SYNTAX 1.3.6.1.4.1.1466.115.121.1.5 )
( 2.16.840.1.113730.3.1.216 NAME 'userPKCS12' DESC 'RFC2798: personal identity information, a PKCS #12 PFX' SYNTAX 1.3.6.1.4.1.1466.115.121.1.5 )
( 1.3.6.1.4.1.5923.1.6.1.1 NAME 'eduCourseOffering' DESC 'identifiers for course offerings per the eduCourse data model' EQUALITY caseExactMatch SYNTAX 1.3.6.1.4.1.1466.115.121.1.15 X-ORIGIN 'user defined' )
( 1.3.6.1.4.1.5923.1.6.1.2 NAME 'eduCourseMember' DESC 'role-in-course offering per the eduCourse data model' EQUALITY caseExactMatch SYNTAX 1.3.6.1.4.1.1466.115.121.1.15 X-ORIGIN 'user defined' )
( 1.3.6.1.4.1.5923.1.1.1.1 NAME 'eduPersonAffiliation' EQUALITY caseIgnoreMatch SYNTAX 1.3.6.1.4.1.1466.115.121.1.15 X-ORIGIN 'user defined' )
( 1.3.6.1.4.1.5923.1.1.1.2 NAME 'eduPersonNickName' SYNTAX 1.3.6.1.4.1.1466.115.121.1.15 X-ORIGIN 'user defined' )
( 1.3.6.1.4.1.5923.1.1.1.3 NAME 'eduPersonOrgDN' SYNTAX 1.3.6.1.4.1.1466.115.121.1.12 SINGLE-VALUE X-ORIGIN 'user defined' )
( 1.3.6.1.4.1.5923.1.1.1.4 NAME 'eduPersonOrgUnitDN' SYNTAX 1.3.6.1.4.1.1466.115.121.1.12 X-ORIGIN 'user defined' )
( 1.3.6.1.4.1.5923.1.1.1.5 NAME 'eduPersonPrimaryAffiliation' EQUALITY caseIgnoreMatch SYNTAX 1.3.6.1.4.1.1466.115.121.1.15 SINGLE-VALUE X-ORIGIN 'user defined' )
( 1.3.6.1.4.1.5923.1.1.1.6 NAME 'eduPersonPrincipalName' SYNTAX 1.3.6.1.4.1.1466.115.121.1.15 SINGLE-VALUE X-ORIGIN 'user defined' )
( 1.3.6.1.4.1.5923.1.1.1.7 NAME 'eduPersonEntitlement' SYNTAX 1.3.6.1.4.1.1466.115.121.1.15 X-ORIGIN 'user defined' )
( 1.3.6.1.4.1.5923.1.1.1.8 NAME 'eduPersonPrimaryOrgUnitDN' SYNTAX 1.3.6.1.4.1.1466.115.121.1.12 X-ORIGIN 'user defined' )
( 1.3.6.1.4.1.5923.1.1.1.9 NAME 'eduPersonScopedAffiliation' SYNTAX 1.3.6.1.4.1.1466.115.121.1.15 X-ORIGIN 'user defined' )
( 1.3.6.1.4.1.5923.1.1.1.10 NAME 'eduPersonTargetedID' EQUALITY caseIgnoreMatch SYNTAX 1.3.6.1.4.1.1466.115.121.1.15 X-ORIGIN 'user defined' )
( 1.3.6.1.4.1.5923.1.1.1.11 NAME 'eduPersonAssurance' EQUALITY caseIgnoreMatch SYNTAX 1.3.6.1.4.1.1466.115.121.1.15 X-ORIGIN 'user defined' )
( 1.3.6.1.4.1.19212.06.1.1.1.1 NAME 'umucEmplID' DESC 'Employee Identification Number' EQUALITY caseIgnoreMatch ORDERING caseIgnoreOrderingMatch SUBSTR caseIgnoreSubstringsMatch SYNTAX 1.3.6.1.4.1.1466.115.121.1.15 SINGLE-VALUE X-ORIGIN 'user defined' )
( 1.3.6.1.4.1.19212.06.1.1.1.2 NAME 'umucCampusPhone' DESC 'UMUC Campus Phone' EQUALITY caseIgnoreMatch ORDERING caseIgnoreOrderingMatch SUBSTR caseIgnoreSubstringsMatch SYNTAX 1.3.6.1.4.1.1466.115.121.1.15 X-ORIGIN 'user defined' )
( 1.3.6.1.4.1.19212.06.1.1.1.3 NAME 'umucWorkPhone' DESC 'UMUC Work Phone' EQUALITY caseIgnoreMatch ORDERING caseIgnoreOrderingMatch SUBSTR caseIgnoreSubstringsMatch SYNTAX 1.3.6.1.4.1.1466.115.121.1.15 X-ORIGIN 'user defined' )
( 1.3.6.1.4.1.19212.06.1.1.1.4 NAME 'umucHomePhone' DESC 'UMUC Home Phone' EQUALITY caseIgnoreMatch ORDERING caseIgnoreOrderingMatch SUBSTR caseIgnoreSubstringsMatch SYNTAX 1.3.6.1.4.1.1466.115.121.1.15 X-ORIGIN 'user defined' )
( 1.3.6.1.4.1.19212.06.1.1.1.5 NAME 'umucCampusEmail' DESC 'UMUC Campus Email' EQUALITY caseIgnoreMatch ORDERING caseIgnoreOrderingMatch SUBSTR caseIgnoreSubstringsMatch SYNTAX 1.3.6.1.4.1.1466.115.121.1.15 X-ORIGIN 'user defined' )
( 1.3.6.1.4.1.19212.06.1.1.1.6 NAME 'umucWorkEmail' DESC 'UMUC Work Email' EQUALITY caseIgnoreMatch ORDERING caseIgnoreOrderingMatch SUBSTR caseIgnoreSubstringsMatch SYNTAX 1.3.6.1.4.1.1466.115.121.1.15 X-ORIGIN 'user defined' )
( 1.3.6.1.4.1.19212.06.1.1.1.7 NAME 'umucHomeEmail' DESC 'UMUC Home Email' EQUALITY caseIgnoreMatch ORDERING caseIgnoreOrderingMatch SUBSTR caseIgnoreSubstringsMatch SYNTAX 1.3.6.1.4.1.1466.115.121.1.15 X-ORIGIN 'user defined' )
( 1.3.6.1.4.1.19212.06.1.1.1.8 NAME 'umucLocation' DESC 'UMUC Location Code' EQUALITY caseIgnoreMatch ORDERING caseIgnoreOrderingMatch SUBSTR caseIgnoreSubstringsMatch SYNTAX 1.3.6.1.4.1.1466.115.121.1.15 X-ORIGIN 'user defined' )
( 1.3.6.1.4.1.19212.06.1.1.1.9 NAME 'umucDepartment' DESC 'UMUC Department Code' EQUALITY caseIgnoreMatch ORDERING caseIgnoreOrderingMatch SUBSTR caseIgnoreSubstringsMatch SYNTAX 1.3.6.1.4.1.1466.115.121.1.15 SINGLE-VALUE X-ORIGIN 'user defined' )
( 1.3.6.1.4.1.19212.06.1.1.1.10 NAME 'umucBuilding' DESC 'UMUC Building Name' EQUALITY caseIgnoreMatch ORDERING caseIgnoreOrderingMatch SUBSTR caseIgnoreSubstringsMatch SYNTAX 1.3.6.1.4.1.1466.115.121.1.15 X-ORIGIN 'user defined' )
( 1.3.6.1.4.1.19212.06.1.1.1.11 NAME 'umucRoom' DESC 'UMUC Room Label' EQUALITY caseIgnoreMatch ORDERING caseIgnoreOrderingMatch SUBSTR caseIgnoreSubstringsMatch SYNTAX 1.3.6.1.4.1.1466.115.121.1.15 X-ORIGIN 'user defined' )
( 1.3.6.1.4.1.19212.06.1.1.1.12 NAME 'umucMiddleName' DESC 'UMUC Person Middle Name' EQUALITY caseIgnoreMatch ORDERING caseIgnoreOrderingMatch SUBSTR caseIgnoreSubstringsMatch SYNTAX 1.3.6.1.4.1.1466.115.121.1.15 X-ORIGIN 'user defined' )
( 1.3.6.1.4.1.19212.06.1.1.1.13 NAME 'umucPersonPrivacy' DESC 'UMUC Privacy Level' EQUALITY caseIgnoreMatch ORDERING caseIgnoreOrderingMatch SUBSTR caseIgnoreSubstringsMatch SYNTAX 1.3.6.1.4.1.1466.115.121.1.15 SINGLE-VALUE )
( 1.3.6.1.4.1.19212.06.1.1.1.14 NAME 'sAMAccountName' DESC 'AD test attribute' EQUALITY caseIgnoreMatch ORDERING caseIgnoreOrderingMatch SUBSTR caseIgnoreSubstringsMatch SYNTAX 1.3.6.1.4.1.1466.115.121.1.15 SINGLE-VALUE X-ORIGIN 'user defined' )
( 1.3.6.1.4.1.19212.06.1.1.1.15 NAME 'umucPermanentAddress' DESC 'UMUC Permanent Address' EQUALITY caseIgnoreMatch ORDERING caseIgnoreOrderingMatch SUBSTR caseIgnoreSubstringsMatch SYNTAX 1.3.6.1.4.1.1466.115.121.1.15 SINGLE-VALUE X-ORIGIN 'user defined' )
( 1.3.6.1.4.1.19212.06.1.1.1.16 NAME 'umucUSMPersonPrincipalID' DESC 'UMUC-USM Principal ID' EQUALITY caseIgnoreMatch ORDERING caseIgnoreOrderingMatch SUBSTR caseIgnoreSubstringsMatch SYNTAX 1.3.6.1.4.1.1466.115.121.1.15 SINGLE-VALUE X-ORIGIN 'user defined' )
( 1.3.6.1.4.1.19212.06.1.1.1.17 NAME 'umucNetID' DESC 'UMUC Network ID' EQUALITY caseIgnoreMatch ORDERING caseIgnoreOrderingMatch SUBSTR caseIgnoreSubstringsMatch SYNTAX 1.3.6.1.4.1.1466.115.121.1.15 SINGLE-VALUE X-ORIGIN 'user defined' )
( 1.3.6.1.4.1.19212.06.1.1.1.18 NAME 'umucDepartmentDescr' DESC 'UMUC Dept Description' EQUALITY caseIgnoreMatch ORDERING caseIgnoreOrderingMatch SUBSTR caseIgnoreSubstringsMatch SYNTAX 1.3.6.1.4.1.1466.115.121.1.15 X-ORIGIN 'user defined' )
( 1.3.6.1.4.1.19212.06.1.1.1.19 NAME 'umucPermanentPhone' DESC 'UMUC Permanent Phone' EQUALITY caseIgnoreMatch ORDERING caseIgnoreOrderingMatch SUBSTR caseIgnoreSubstringsMatch SYNTAX 1.3.6.1.4.1.1466.115.121.1.15 SINGLE-VALUE X-ORIGIN 'user defined' )
( 1.3.6.1.4.1.19212.06.1.1.1.20 NAME 'umucMajor' DESC 'UMUC Major' EQUALITY caseIgnoreMatch ORDERING caseIgnoreOrderingMatch SUBSTR caseIgnoreSubstringsMatch SYNTAX 1.3.6.1.4.1.1466.115.121.1.15 X-ORIGIN 'user defined' )
( 1.3.6.1.4.1.19212.06.1.1.1.21 NAME 'umucLastTermElig' DESC 'UMUC Last Term Eligible YYYYMM' EQUALITY caseIgnoreMatch ORDERING caseIgnoreOrderingMatch SUBSTR caseIgnoreSubstringsMatch SYNTAX 1.3.6.1.4.1.1466.115.121.1.15 SINGLE-VALUE X-ORIGIN 'user defined' )
( 1.3.6.1.4.1.19212.06.1.1.1.22 NAME 'umucLastTermReg' DESC 'UMUC Last Term Registered for YYYYMM' EQUALITY caseIgnoreMatch ORDERING caseIgnoreOrderingMatch SUBSTR caseIgnoreSubstringsMatch SYNTAX 1.3.6.1.4.1.1466.115.121.1.15 SINGLE-VALUE X-ORIGIN 'user defined' )
( 1.3.6.1.4.1.19212.06.1.1.1.23 NAME 'umucBuckley' DESC 'UMUC Privacy flag' EQUALITY caseIgnoreMatch ORDERING caseIgnoreOrderingMatch SUBSTR caseIgnoreSubstringsMatch SYNTAX 1.3.6.1.4.1.1466.115.121.1.15 SINGLE-VALUE X-ORIGIN 'user defined' )
( 1.3.6.1.4.1.19212.06.1.1.1.24 NAME 'umucConfidential' DESC 'UMUC Confidentiality Flag' EQUALITY caseIgnoreMatch ORDERING caseIgnoreOrderingMatch SUBSTR caseIgnoreSubstringsMatch SYNTAX 1.3.6.1.4.1.1466.115.121.1.15 SINGLE-VALUE X-ORIGIN 'user defined' )
( 1.3.6.1.4.1.19212.06.1.1.1.25 NAME 'umucAddressConfidential' DESC 'UMUC Address Confidentiality Flag' EQUALITY caseIgnoreMatch ORDERING caseIgnoreOrderingMatch SUBSTR caseIgnoreSubstringsMatch SYNTAX 1.3.6.1.4.1.1466.115.121.1.15 SINGLE-VALUE X-ORIGIN 'user defined' )
( 1.3.6.1.4.1.19212.06.1.1.1.26 NAME 'umucPhoneConfidential' DESC 'UMUC Phone Confidentiality Flag' EQUALITY caseIgnoreMatch ORDERING caseIgnoreOrderingMatch SUBSTR caseIgnoreSubstringsMatch SYNTAX 1.3.6.1.4.1.1466.115.121.1.15 SINGLE-VALUE X-ORIGIN 'user defined' )
( 1.3.6.1.4.1.19212.06.1.1.1.27 NAME 'umucTeachingSubject' DESC 'UMUC Faculty Teaching Subject' EQUALITY caseIgnoreMatch ORDERING caseIgnoreOrderingMatch SUBSTR caseIgnoreSubstringsMatch SYNTAX 1.3.6.1.4.1.1466.115.121.1.15 X-ORIGIN 'user defined' )
( 1.3.6.1.4.1.19212.06.1.1.1.28 NAME 'umucTerminationDate' DESC 'UMUC Termination Date' EQUALITY caseIgnoreMatch ORDERING caseIgnoreOrderingMatch SUBSTR caseIgnoreSubstringsMatch SYNTAX 1.3.6.1.4.1.1466.115.121.1.15 SINGLE-VALUE X-ORIGIN 'user defined' )
( 1.3.6.1.4.1.19212.06.1.1.1.29 NAME 'umucEmployeeUSA' DESC 'UMUC Role for Employee USA' EQUALITY caseIgnoreMatch ORDERING caseIgnoreOrderingMatch SUBSTR caseIgnoreSubstringsMatch SYNTAX 1.3.6.1.4.1.1466.115.121.1.15 SINGLE-VALUE X-ORIGIN 'user defined' )
( 1.3.6.1.4.1.19212.06.1.1.1.30 NAME 'umucEmployeeEuro' DESC 'UMUC Role for Employee Euro' EQUALITY caseIgnoreMatch ORDERING caseIgnoreOrderingMatch SUBSTR caseIgnoreSubstringsMatch SYNTAX 1.3.6.1.4.1.1466.115.121.1.15 SINGLE-VALUE X-ORIGIN 'user defined' )
( 1.3.6.1.4.1.19212.06.1.1.1.31 NAME 'umucEmployeeAsia' DESC 'UMUC Role for Employee Asia' EQUALITY caseIgnoreMatch ORDERING caseIgnoreOrderingMatch SUBSTR caseIgnoreSubstringsMatch SYNTAX 1.3.6.1.4.1.1466.115.121.1.15 SINGLE-VALUE X-ORIGIN 'user defined' )
( 1.3.6.1.4.1.19212.06.1.1.1.32 NAME 'umucFacultyUSA' DESC 'UMUC Role for Faculty USA' EQUALITY caseIgnoreMatch ORDERING caseIgnoreOrderingMatch SUBSTR caseIgnoreSubstringsMatch SYNTAX 1.3.6.1.4.1.1466.115.121.1.15 SINGLE-VALUE X-ORIGIN 'user defined' )
( 1.3.6.1.4.1.19212.06.1.1.1.33 NAME 'umucFacultyEuro' DESC 'UMUC Role for Faculty Euro' EQUALITY caseIgnoreMatch ORDERING caseIgnoreOrderingMatch SUBSTR caseIgnoreSubstringsMatch SYNTAX 1.3.6.1.4.1.1466.115.121.1.15 SINGLE-VALUE X-ORIGIN 'user defined' )
( 1.3.6.1.4.1.19212.06.1.1.1.34 NAME 'umucFacultyAsia' DESC 'UMUC Role for Faculty Asia' EQUALITY caseIgnoreMatch ORDERING caseIgnoreOrderingMatch SUBSTR caseIgnoreSubstringsMatch SYNTAX 1.3.6.1.4.1.1466.115.121.1.15 SINGLE-VALUE X-ORIGIN 'user defined' )
( 1.3.6.1.4.1.19212.06.1.1.1.35 NAME 'umucNonEmployeeUSA' DESC 'UMUC Role for Non Employee USA' EQUALITY caseIgnoreMatch ORDERING caseIgnoreOrderingMatch SUBSTR caseIgnoreSubstringsMatch SYNTAX 1.3.6.1.4.1.1466.115.121.1.15 SINGLE-VALUE X-ORIGIN 'user defined' )
( 1.3.6.1.4.1.19212.06.1.1.1.36 NAME 'umucNonEmployeeEuro' DESC 'UMUC Role for Non Employee Euro' EQUALITY caseIgnoreMatch ORDERING caseIgnoreOrderingMatch SUBSTR caseIgnoreSubstringsMatch SYNTAX 1.3.6.1.4.1.1466.115.121.1.15 SINGLE-VALUE X-ORIGIN 'user defined' )
( 1.3.6.1.4.1.19212.06.1.1.1.37 NAME 'umucNonEmployeeAsia' DESC 'UMUC Role for Non Employee Asia' EQUALITY caseIgnoreMatch ORDERING caseIgnoreOrderingMatch SUBSTR caseIgnoreSubstringsMatch SYNTAX 1.3.6.1.4.1.1466.115.121.1.15 SINGLE-VALUE X-ORIGIN 'user defined' )
( 1.3.6.1.4.1.19212.06.1.1.1.38 NAME 'umucStudentUSA' DESC 'UMUC Role for Student USA' EQUALITY caseIgnoreMatch ORDERING caseIgnoreOrderingMatch SUBSTR caseIgnoreSubstringsMatch SYNTAX 1.3.6.1.4.1.1466.115.121.1.15 SINGLE-VALUE X-ORIGIN 'user defined' )
( 1.3.6.1.4.1.19212.06.1.1.1.39 NAME 'umucStudentEuro' DESC 'UMUC Role for Student Euro' EQUALITY caseIgnoreMatch ORDERING caseIgnoreOrderingMatch SUBSTR caseIgnoreSubstringsMatch SYNTAX 1.3.6.1.4.1.1466.115.121.1.15 SINGLE-VALUE X-ORIGIN 'user defined' )
( 1.3.6.1.4.1.19212.06.1.1.1.40 NAME 'umucStudentAsia' DESC 'UMUC Role for Student Asia' EQUALITY caseIgnoreMatch ORDERING caseIgnoreOrderingMatch SUBSTR caseIgnoreSubstringsMatch SYNTAX 1.3.6.1.4.1.1466.115.121.1.15 SINGLE-VALUE X-ORIGIN 'user defined' )
( 1.3.6.1.4.1.19212.06.1.1.1.41 NAME 'umucDOB' DESC 'UMUC Date of Birth' EQUALITY caseIgnoreMatch ORDERING caseIgnoreOrderingMatch SUBSTR caseIgnoreSubstringsMatch SYNTAX 1.3.6.1.4.1.1466.115.121.1.15 SINGLE-VALUE X-ORIGIN 'user defined' )
( 1.3.6.1.4.1.19212.06.1.1.1.42 NAME 'umucProfile' DESC 'UMUC Role Profile' EQUALITY caseIgnoreMatch ORDERING caseIgnoreOrderingMatch SUBSTR caseIgnoreSubstringsMatch SYNTAX 1.3.6.1.4.1.1466.115.121.1.15 SINGLE-VALUE X-ORIGIN 'user defined' )
( 1.3.6.1.4.1.19212.06.1.1.1.43 NAME 'umucGUID' DESC 'UMUC GUID' EQUALITY caseIgnoreMatch ORDERING caseIgnoreOrderingMatch SUBSTR caseIgnoreSubstringsMatch SYNTAX 1.3.6.1.4.1.1466.115.121.1.15 SINGLE-VALUE X-ORIGIN 'user defined' )
( 1.3.6.1.4.1.19212.06.1.1.1.44 NAME 'umucLibraryBarcode' DESC 'UMUC Library Barcode' EQUALITY caseIgnoreMatch ORDERING caseIgnoreOrderingMatch SUBSTR caseIgnoreSubstringsMatch SYNTAX 1.3.6.1.4.1.1466.115.121.1.15 SINGLE-VALUE X-ORIGIN 'user defined' )
( 1.3.6.1.4.1.19212.06.1.1.1.45 NAME 'umucDivision' DESC 'UMUC Division' EQUALITY caseIgnoreMatch ORDERING caseIgnoreOrderingMatch SUBSTR caseIgnoreSubstringsMatch SYNTAX 1.3.6.1.4.1.1466.115.121.1.15 SINGLE-VALUE X-ORIGIN 'user defined' )
( 1.3.6.1.4.1.19212.06.1.1.1.46 NAME 'umucPhoneBookInternalPhone' DESC 'UMUC PhoneBook Internal Phone' EQUALITY caseIgnoreMatch ORDERING caseIgnoreOrderingMatch SUBSTR caseIgnoreSubstringsMatch SYNTAX 1.3.6.1.4.1.1466.115.121.1.15 SINGLE-VALUE X-ORIGIN 'user defined' )
( 1.3.6.1.4.1.19212.06.1.1.1.47 NAME 'umucPhoneBookExternalPhone' DESC 'UMUC PhoneBook External Phone' EQUALITY caseIgnoreMatch ORDERING caseIgnoreOrderingMatch SUBSTR caseIgnoreSubstringsMatch SYNTAX 1.3.6.1.4.1.1466.115.121.1.15 SINGLE-VALUE X-ORIGIN 'user defined' )
( 1.3.6.1.4.1.19212.06.1.1.1.48 NAME 'umucPhoneBookTitle' DESC 'UMUC PhoneBook Title' EQUALITY caseIgnoreMatch ORDERING caseIgnoreOrderingMatch SUBSTR caseIgnoreSubstringsMatch SYNTAX 1.3.6.1.4.1.1466.115.121.1.15 SINGLE-VALUE X-ORIGIN 'user defined' )
( 1.3.6.1.4.1.19212.06.1.1.1.49 NAME 'umucStudentEmail' DESC 'UMUC Student Email' EQUALITY caseIgnoreMatch ORDERING caseIgnoreOrderingMatch SUBSTR caseIgnoreSubstringsMatch SYNTAX 1.3.6.1.4.1.1466.115.121.1.15 SINGLE-VALUE X-ORIGIN 'user defined' )
( 1.3.6.1.4.1.19212.06.1.1.1.50 NAME 'umucEmployeeEmail' DESC 'UMUC Employee Email' EQUALITY caseIgnoreMatch ORDERING caseIgnoreOrderingMatch SUBSTR caseIgnoreSubstringsMatch SYNTAX 1.3.6.1.4.1.1466.115.121.1.15 SINGLE-VALUE X-ORIGIN 'user defined' )
( 1.3.6.1.4.1.19212.06.1.1.1.51 NAME 'umucFacultyEmail' DESC 'UMUC Faculty Email' EQUALITY caseIgnoreMatch ORDERING caseIgnoreOrderingMatch SUBSTR caseIgnoreSubstringsMatch SYNTAX 1.3.6.1.4.1.1466.115.121.1.15 SINGLE-VALUE X-ORIGIN 'user defined' )
( 1.3.6.1.4.1.19212.06.1.1.1.52 NAME 'umucAlumniEmail' DESC 'UMUC Alumni Email' EQUALITY caseIgnoreMatch ORDERING caseIgnoreOrderingMatch SUBSTR caseIgnoreSubstringsMatch SYNTAX 1.3.6.1.4.1.1466.115.121.1.15 SINGLE-VALUE X-ORIGIN 'user defined' )
( 1.3.6.1.4.1.19212.06.1.1.1.53 NAME 'umucPrefFirstName' DESC 'UMUC Preferred First Name' EQUALITY caseIgnoreMatch ORDERING caseIgnoreOrderingMatch SUBSTR caseIgnoreSubstringsMatch SYNTAX 1.3.6.1.4.1.1466.115.121.1.15 SINGLE-VALUE X-ORIGIN 'user defined' )
( 1.3.6.1.4.1.19212.06.1.1.1.54 NAME 'NTPassword' DESC 'NTPassword' EQUALITY caseExactMatch ORDERING caseExactOrderingMatch SUBSTR caseExactSubstringsMatch SYNTAX 1.3.6.1.4.1.1466.115.121.1.15 SINGLE-VALUE X-ORIGIN 'user defined' )
( 1.3.6.1.4.1.19212.06.1.1.1.55 NAME 'umucVPNGroup' DESC 'umucVPNGroup' EQUALITY caseExactMatch ORDERING caseExactOrderingMatch SUBSTR caseExactSubstringsMatch SYNTAX 1.3.6.1.4.1.1466.115.121.1.15 X-ORIGIN 'user defined' )
( 1.3.6.1.4.1.19212.06.1.1.1.56 NAME 'umucLibStartDate' DESC 'umucLibStartDate' EQUALITY caseExactMatch ORDERING caseExactOrderingMatch SUBSTR caseExactSubstringsMatch SYNTAX 1.3.6.1.4.1.1466.115.121.1.15 X-ORIGIN 'user defined' )
( 1.3.6.1.4.1.19212.06.1.1.1.57 NAME 'umucLibEndDate' DESC 'umucLibEndDate' EQUALITY caseExactMatch ORDERING caseExactOrderingMatch SUBSTR caseExactSubstringsMatch SYNTAX 1.3.6.1.4.1.1466.115.121.1.15 X-ORIGIN 'user defined' )
( 1.3.6.1.4.1.19212.06.1.1.1.58 NAME 'umucSupervisorName' DESC 'UMUC Supervisor Name' EQUALITY caseIgnoreMatch ORDERING caseIgnoreOrderingMatch SUBSTR caseIgnoreSubstringsMatch SYNTAX 1.3.6.1.4.1.1466.115.121.1.15 SINGLE-VALUE X-ORIGIN 'user defined' )
( 1.3.6.1.4.1.19212.06.1.1.1.59 NAME 'umucManagerEmail' DESC 'UMUC Manager Email' EQUALITY caseIgnoreMatch ORDERING caseIgnoreOrderingMatch SUBSTR caseIgnoreSubstringsMatch SYNTAX 1.3.6.1.4.1.1466.115.121.1.15 SINGLE-VALUE X-ORIGIN 'user defined' )
( 1.3.6.1.4.1.19212.06.1.1.1.60 NAME 'umucCellPhone' DESC 'UMUC Cell Phone' EQUALITY caseIgnoreMatch ORDERING caseIgnoreOrderingMatch SUBSTR caseIgnoreSubstringsMatch SYNTAX 1.3.6.1.4.1.1466.115.121.1.15 X-ORIGIN 'user defined' )
( 1.3.6.1.4.1.42.2.27.8.1.1 NAME 'pwdAttribute' EQUALITY objectIdentifierMatch SYNTAX 1.3.6.1.4.1.1466.115.121.1.38 )
( 1.3.6.1.4.1.42.2.27.8.1.2 NAME 'pwdMinAge' EQUALITY integerMatch SYNTAX 1.3.6.1.4.1.1466.115.121.1.27 SINGLE-VALUE )
( 1.3.6.1.4.1.42.2.27.8.1.3 NAME 'pwdMaxAge' EQUALITY integerMatch SYNTAX 1.3.6.1.4.1.1466.115.121.1.27 SINGLE-VALUE )
( 1.3.6.1.4.1.42.2.27.8.1.4 NAME 'pwdInHistory' EQUALITY integerMatch SYNTAX 1.3.6.1.4.1.1466.115.121.1.27 SINGLE-VALUE )
( 1.3.6.1.4.1.42.2.27.8.1.5 NAME 'pwdCheckQuality' EQUALITY integerMatch SYNTAX 1.3.6.1.4.1.1466.115.121.1.27 SINGLE-VALUE )
( 1.3.6.1.4.1.42.2.27.8.1.6 NAME 'pwdMinLength' EQUALITY integerMatch SYNTAX 1.3.6.1.4.1.1466.115.121.1.27 SINGLE-VALUE )
( 1.3.6.1.4.1.42.2.27.8.1.7 NAME 'pwdExpireWarning' EQUALITY integerMatch SYNTAX 1.3.6.1.4.1.1466.115.121.1.27 SINGLE-VALUE )
( 1.3.6.1.4.1.42.2.27.8.1.8 NAME 'pwdGraceAuthNLimit' EQUALITY integerMatch SYNTAX 1.3.6.1.4.1.1466.115.121.1.27 SINGLE-VALUE )
( 1.3.6.1.4.1.42.2.27.8.1.9 NAME 'pwdLockout' EQUALITY booleanMatch SYNTAX 1.3.6.1.4.1.1466.115.121.1.7 SINGLE-VALUE )
( 1.3.6.1.4.1.42.2.27.8.1.10 NAME 'pwdLockoutDuration' EQUALITY integerMatch SYNTAX 1.3.6.1.4.1.1466.115.121.1.27 SINGLE-VALUE )
( 1.3.6.1.4.1.42.2.27.8.1.11 NAME 'pwdMaxFailure' EQUALITY integerMatch SYNTAX 1.3.6.1.4.1.1466.115.121.1.27 SINGLE-VALUE )
( 1.3.6.1.4.1.42.2.27.8.1.12 NAME 'pwdFailureCountInterval' EQUALITY integerMatch SYNTAX 1.3.6.1.4.1.1466.115.121.1.27 SINGLE-VALUE )
( 1.3.6.1.4.1.42.2.27.8.1.13 NAME 'pwdMustChange' EQUALITY booleanMatch SYNTAX 1.3.6.1.4.1.1466.115.121.1.7 SINGLE-VALUE )
( 1.3.6.1.4.1.42.2.27.8.1.14 NAME 'pwdAllowUserChange' EQUALITY booleanMatch SYNTAX 1.3.6.1.4.1.1466.115.121.1.7 SINGLE-VALUE )
( 1.3.6.1.4.1.42.2.27.8.1.15 NAME 'pwdSafeModify' EQUALITY booleanMatch SYNTAX 1.3.6.1.4.1.1466.115.121.1.7 SINGLE-VALUE )
( 1.3.6.1.4.1.4754.1.99.1 NAME 'pwdCheckModule' DESC 'Loadable module that instantiates "check_password() function' EQUALITY caseExactIA5Match SYNTAX 1.3.6.1.4.1.1466.115.121.1.26 SINGLE-VALUE )
( 2.16.840.1.113730.3.1.198 NAME 'memberURL' DESC 'Identifies an URL associated with each member of a group. Any type of labeled URL can be used.' SUP labeledURI )
( 1.3.6.1.4.1.4203.666.11.8.1.1 NAME 'dgIdentity' DESC 'Identity to use when processing the memberURL' SUP distinguishedName SINGLE-VALUE )
( 1.3.6.1.4.1.4203.666.11.8.1.2 NAME 'dgAuthz' DESC 'Optional authorization rules that determine who is allowed to assume the dgIdentity' EQUALITY authzMatch SYNTAX 1.3.6.1.4.1.4203.666.2.7 X-ORDERED 'VALUES' )
[objectClasses]
( 2.5.6.0 NAME 'top' DESC 'top of the superclass chain' ABSTRACT MUST objectClass )
( 1.3.6.1.4.1.1466.101.120.111 NAME 'extensibleObject' DESC 'RFC4512: extensible object' SUP top AUXILIARY )
( 2.5.6.1 NAME 'alias' DESC 'RFC4512: an alias' SUP top STRUCTURAL MUST aliasedObjectName )
( 2.16.840.1.113730.3.2.6 NAME 'referral' DESC 'namedref: named subordinate referral' SUP top STRUCTURAL MUST ref )
( 1.3.6.1.4.1.4203.1.4.1 NAME ( 'OpenLDAProotDSE' 'LDAProotDSE' ) DESC 'OpenLDAP Root DSE object' SUP top STRUCTURAL MAY cn )
( 2.5.17.0 NAME 'subentry' DESC 'RFC3672: subentry' SUP top STRUCTURAL MUST ( cn $ subtreeSpecification ) )
( 2.5.20.1 NAME 'subschema' DESC 'RFC4512: controlling subschema (sub)entry' AUXILIARY MAY ( dITStructureRules $ nameForms $ dITContentRules $ objectClasses $ attributeTypes $ matchingRules $ matchingRuleUse ) )
( 1.3.6.1.4.1.1466.101.119.2 NAME 'dynamicObject' DESC 'RFC2589: Dynamic Object' SUP top AUXILIARY )
( 1.3.6.1.4.1.4203.1.12.2.4.0.0 NAME 'olcConfig' DESC 'OpenLDAP configuration object' SUP top ABSTRACT )
( 1.3.6.1.4.1.4203.1.12.2.4.0.1 NAME 'olcGlobal' DESC 'OpenLDAP Global configuration options' SUP olcConfig STRUCTURAL MAY ( cn $ olcConfigFile $ olcConfigDir $ olcAllows $ olcArgsFile $ olcAttributeOptions $ olcAuthIDRewrite $ olcAuthzPolicy $ olcAuthzRegexp $ olcConcurrency $ olcConnMaxPending $ olcConnMaxPendingAuth $ olcDisallows $ olcGentleHUP $ olcIdleTimeout $ olcIndexSubstrIfMaxLen $ olcIndexSubstrIfMinLen $ olcIndexSubstrAnyLen $ olcIndexSubstrAnyStep $ olcIndexIntLen $ olcLocalSSF $ olcLogFile $ olcLogLevel $ olcPasswordCryptSaltFormat $ olcPasswordHash $ olcPidFile $ olcPluginLogFile $ olcReadOnly $ olcReferral $ olcReplogFile $ olcRequires $ olcRestrict $ olcReverseLookup $ olcRootDSE $ olcSaslAuxprops $ olcSaslHost $ olcSaslRealm $ olcSaslSecProps $ olcSecurity $ olcServerID $ olcSizeLimit $ olcSockbufMaxIncoming $ olcSockbufMaxIncomingAuth $ olcTCPBuffer $ olcThreads $ olcTimeLimit $ olcTLSCACertificateFile $ olcTLSCACertificatePath $ olcTLSCertificateFile $ olcTLSCertificateKeyFile $ olcTLSCipherSuite $ olcTLSCRLCheck $ olcTLSRandFile $ olcTLSVerifyClient $ olcTLSDHParamFile $ olcTLSCRLFile $ olcToolThreads $ olcWriteTimeout $ olcObjectIdentifier $ olcAttributeTypes $ olcObjectClasses $ olcDitContentRules $ olcLdapSyntaxes ) )
( 1.3.6.1.4.1.4203.1.12.2.4.0.2 NAME 'olcSchemaConfig' DESC 'OpenLDAP schema object' SUP olcConfig STRUCTURAL MAY ( cn $ olcObjectIdentifier $ olcAttributeTypes $ olcObjectClasses $ olcDitContentRules $ olcLdapSyntaxes ) )
( 1.3.6.1.4.1.4203.1.12.2.4.0.3 NAME 'olcBackendConfig' DESC 'OpenLDAP Backend-specific options' SUP olcConfig STRUCTURAL MUST olcBackend )
( 1.3.6.1.4.1.4203.1.12.2.4.0.4 NAME 'olcDatabaseConfig' DESC 'OpenLDAP Database-specific options' SUP olcConfig STRUCTURAL MUST olcDatabase MAY ( olcHidden $ olcSuffix $ olcSubordinate $ olcAccess $ olcAddContentAcl $ olcLastMod $ olcLimits $ olcMaxDerefDepth $ olcPlugin $ olcReadOnly $ olcReplica $ olcReplicaArgsFile $ olcReplicaPidFile $ olcReplicationInterval $ olcReplogFile $ olcRequires $ olcRestrict $ olcRootDN $ olcRootPW $ olcSchemaDN $ olcSecurity $ olcSizeLimit $ olcSyncUseSubentry $ olcSyncrepl $ olcTimeLimit $ olcUpdateDN $ olcUpdateRef $ olcMirrorMode $ olcMonitoring ) )
( 1.3.6.1.4.1.4203.1.12.2.4.0.5 NAME 'olcOverlayConfig' DESC 'OpenLDAP Overlay-specific options' SUP olcConfig STRUCTURAL MUST olcOverlay )
( 1.3.6.1.4.1.4203.1.12.2.4.0.6 NAME 'olcIncludeFile' DESC 'OpenLDAP configuration include file' SUP olcConfig STRUCTURAL MUST olcInclude MAY ( cn $ olcRootDSE ) )
( 1.3.6.1.4.1.4203.1.12.2.4.0.7 NAME 'olcFrontendConfig' DESC 'OpenLDAP frontend configuration' AUXILIARY MAY ( olcDefaultSearchBase $ olcPasswordHash $ olcSortVals ) )
( 1.3.6.1.4.1.4203.1.12.2.4.0.8 NAME 'olcModuleList' DESC 'OpenLDAP dynamic module info' SUP olcConfig STRUCTURAL MAY ( cn $ olcModulePath $ olcModuleLoad ) )
( 1.3.6.1.4.1.4203.1.12.2.4.2.2.1 NAME 'olcLdifConfig' DESC 'LDIF backend configuration' SUP olcDatabaseConfig STRUCTURAL MUST olcDbDirectory )
( 1.3.6.1.4.1.4203.1.12.2.4.2.1.1 NAME 'olcBdbConfig' DESC 'BDB backend configuration' SUP olcDatabaseConfig STRUCTURAL MUST olcDbDirectory MAY ( olcDbCacheSize $ olcDbCheckpoint $ olcDbConfig $ olcDbCryptFile $ olcDbCryptKey $ olcDbNoSync $ olcDbDirtyRead $ olcDbIDLcacheSize $ olcDbIndex $ olcDbLinearIndex $ olcDbLockDetect $ olcDbMode $ olcDbSearchStack $ olcDbShmKey $ olcDbCacheFree $ olcDbDNcacheSize $ olcDbPageSize ) )
( 1.3.6.1.4.1.4203.1.12.2.4.3.1.1 NAME 'olcSyncProvConfig' DESC 'SyncRepl Provider configuration' SUP olcOverlayConfig STRUCTURAL MAY ( olcSpCheckpoint $ olcSpSessionlog $ olcSpNoPresent $ olcSpReloadHint ) )
( 1.3.6.1.4.1.4203.1.12.2.4.3.12.1 NAME 'olcPPolicyConfig' DESC 'Password Policy configuration' SUP olcOverlayConfig STRUCTURAL MAY ( olcPPolicyDefault $ olcPPolicyHashCleartext $ olcPPolicyUseLockout $ olcPPolicyForwardUpdates ) )
( 1.3.6.1.4.1.4203.1.12.2.4.2.4.1 NAME 'olcMonitorConfig' DESC 'Monitor backend configuration' SUP olcDatabaseConfig STRUCTURAL )
( 1.3.6.1.4.1.4203.1.12.2.4.3.18.1 NAME 'olcMemberOf' DESC 'Member-of configuration' SUP olcOverlayConfig STRUCTURAL MAY ( olcMemberOfDN $ olcMemberOfDangling $ olcMemberOfDanglingError $ olcMemberOfRefInt $ olcMemberOfGroupOC $ olcMemberOfMemberAD $ olcMemberOfMemberOfAD ) )
( 1.3.6.1.4.1.4203.1.12.2.4.3.8.1 NAME 'olcDynamicList' DESC 'Dynamic list configuration' SUP olcOverlayConfig STRUCTURAL MAY olcDLattrSet )
( 2.5.6.2 NAME 'country' DESC 'RFC2256: a country' SUP top STRUCTURAL MUST c MAY ( searchGuide $ description ) )
( 2.5.6.3 NAME 'locality' DESC 'RFC2256: a locality' SUP top STRUCTURAL MAY ( street $ seeAlso $ searchGuide $ st $ l $ description ) )
( 2.5.6.4 NAME 'organization' DESC 'RFC2256: an organization' SUP top STRUCTURAL MUST o MAY ( userPassword $ searchGuide $ seeAlso $ businessCategory $ x121Address $ registeredAddress $ destinationIndicator $ preferredDeliveryMethod $ telexNumber $ teletexTerminalIdentifier $ telephoneNumber $ internationaliSDNNumber $ facsimileTelephoneNumber $ street $ postOfficeBox $ postalCode $ postalAddress $ physicalDeliveryOfficeName $ st $ l $ description ) )
( 2.5.6.5 NAME 'organizationalUnit' DESC 'RFC2256: an organizational unit' SUP top STRUCTURAL MUST ou MAY ( userPassword $ searchGuide $ seeAlso $ businessCategory $ x121Address $ registeredAddress $ destinationIndicator $ preferredDeliveryMethod $ telexNumber $ teletexTerminalIdentifier $ telephoneNumber $ internationaliSDNNumber $ facsimileTelephoneNumber $ street $ postOfficeBox $ postalCode $ postalAddress $ physicalDeliveryOfficeName $ st $ l $ description ) )
( 2.5.6.6 NAME 'person' DESC 'RFC2256: a person' SUP top STRUCTURAL MUST ( sn $ cn ) MAY ( userPassword $ telephoneNumber $ seeAlso $ description ) )
( 2.5.6.7 NAME 'organizationalPerson' DESC 'RFC2256: an organizational person' SUP person STRUCTURAL MAY ( title $ x121Address $ registeredAddress $ destinationIndicator $ preferredDeliveryMethod $ telexNumber $ teletexTerminalIdentifier $ telephoneNumber $ internationaliSDNNumber $ facsimileTelephoneNumber $ street $ postOfficeBox $ postalCode $ postalAddress $ physicalDeliveryOfficeName $ ou $ st $ l ) )
( 2.5.6.8 NAME 'organizationalRole' DESC 'RFC2256: an organizational role' SUP top STRUCTURAL MUST cn MAY ( x121Address $ registeredAddress $ destinationIndicator $ preferredDeliveryMethod $ telexNumber $ teletexTerminalIdentifier $ telephoneNumber $ internationaliSDNNumber $ facsimileTelephoneNumber $ seeAlso $ roleOccupant $ preferredDeliveryMethod $ street $ postOfficeBox $ postalCode $ postalAddress $ physicalDeliveryOfficeName $ ou $ st $ l $ description ) )
( 2.5.6.9 NAME 'groupOfNames' DESC 'RFC2256: a group of names (DNs)' SUP top STRUCTURAL MUST ( member $ cn ) MAY ( businessCategory $ seeAlso $ owner $ ou $ o $ description ) )
( 2.5.6.10 NAME 'residentialPerson' DESC 'RFC2256: an residential person' SUP person STRUCTURAL MUST l MAY ( businessCategory $ x121Address $ registeredAddress $ destinationIndicator $ preferredDeliveryMethod $ telexNumber $ teletexTerminalIdentifier $ telephoneNumber $ internationaliSDNNumber $ facsimileTelephoneNumber $ preferredDeliveryMethod $ street $ postOfficeBox $ postalCode $ postalAddress $ physicalDeliveryOfficeName $ st $ l ) )
( 2.5.6.11 NAME 'applicationProcess' DESC 'RFC2256: an application process' SUP top STRUCTURAL MUST cn MAY ( seeAlso $ ou $ l $ description ) )
( 2.5.6.12 NAME 'applicationEntity' DESC 'RFC2256: an application entity' SUP top STRUCTURAL MUST ( presentationAddress $ cn ) MAY ( supportedApplicationContext $ seeAlso $ ou $ o $ l $ description ) )
( 2.5.6.13 NAME 'dSA' DESC 'RFC2256: a directory system agent (a server)' SUP applicationEntity STRUCTURAL MAY knowledgeInformation )
( 2.5.6.14 NAME 'device' DESC 'RFC2256: a device' SUP top STRUCTURAL MUST cn MAY ( serialNumber $ seeAlso $ owner $ ou $ o $ l $ description ) )
( 2.5.6.15 NAME 'strongAuthenticationUser' DESC 'RFC2256: a strong authentication user' SUP top AUXILIARY MUST userCertificate )
( 2.5.6.16 NAME 'certificationAuthority' DESC 'RFC2256: a certificate authority' SUP top AUXILIARY MUST ( authorityRevocationList $ certificateRevocationList $ cACertificate ) MAY crossCertificatePair )
( 2.5.6.17 NAME 'groupOfUniqueNames' DESC 'RFC2256: a group of unique names (DN and Unique Identifier)' SUP top STRUCTURAL MUST ( uniqueMember $ cn ) MAY ( businessCategory $ seeAlso $ owner $ ou $ o $ description ) )
( 2.5.6.18 NAME 'userSecurityInformation' DESC 'RFC2256: a user security information' SUP top AUXILIARY MAY supportedAlgorithms )
( 2.5.6.16.2 NAME 'certificationAuthority-V2' SUP certificationAuthority AUXILIARY MAY deltaRevocationList )
( 2.5.6.19 NAME 'cRLDistributionPoint' SUP top STRUCTURAL MUST cn MAY ( certificateRevocationList $ authorityRevocationList $ deltaRevocationList ) )
( 2.5.6.20 NAME 'dmd' SUP top STRUCTURAL MUST dmdName MAY ( userPassword $ searchGuide $ seeAlso $ businessCategory $ x121Address $ registeredAddress $ destinationIndicator $ preferredDeliveryMethod $ telexNumber $ teletexTerminalIdentifier $ telephoneNumber $ internationaliSDNNumber $ facsimileTelephoneNumber $ street $ postOfficeBox $ postalCode $ postalAddress $ physicalDeliveryOfficeName $ st $ l $ description ) )
( 2.5.6.21 NAME 'pkiUser' DESC 'RFC2587: a PKI user' SUP top AUXILIARY MAY userCertificate )
( 2.5.6.22 NAME 'pkiCA' DESC 'RFC2587: PKI certificate authority' SUP top AUXILIARY MAY ( authorityRevocationList $ certificateRevocationList $ cACertificate $ crossCertificatePair ) )
( 2.5.6.23 NAME 'deltaCRL' DESC 'RFC2587: PKI user' SUP top AUXILIARY MAY deltaRevocationList )
( 1.3.6.1.4.1.250.3.15 NAME 'labeledURIObject' DESC 'RFC2079: object that contains the URI attribute type' SUP top AUXILIARY MAY labeledURI )
( 0.9.2342.19200300.100.4.19 NAME 'simpleSecurityObject' DESC 'RFC1274: simple security object' SUP top AUXILIARY MUST userPassword )
( 1.3.6.1.4.1.1466.344 NAME 'dcObject' DESC 'RFC2247: domain component object' SUP top AUXILIARY MUST dc )
( 1.3.6.1.1.3.1 NAME 'uidObject' DESC 'RFC2377: uid object' SUP top AUXILIARY MUST uid )
( 0.9.2342.19200300.100.4.4 NAME ( 'pilotPerson' 'newPilotPerson' ) SUP person STRUCTURAL MAY ( userid $ textEncodedORAddress $ rfc822Mailbox $ favouriteDrink $ roomNumber $ userClass $ homeTelephoneNumber $ homePostalAddress $ secretary $ personalTitle $ preferredDeliveryMethod $ businessCategory $ janetMailbox $ otherMailbox $ mobileTelephoneNumber $ pagerTelephoneNumber $ organizationalStatus $ mailPreferenceOption $ personalSignature ) )
( 0.9.2342.19200300.100.4.5 NAME 'account' SUP top STRUCTURAL MUST userid MAY ( description $ seeAlso $ localityName $ organizationName $ organizationalUnitName $ host ) )
( 0.9.2342.19200300.100.4.6 NAME 'document' SUP top STRUCTURAL MUST documentIdentifier MAY ( commonName $ description $ seeAlso $ localityName $ organizationName $ organizationalUnitName $ documentTitle $ documentVersion $ documentAuthor $ documentLocation $ documentPublisher ) )
( 0.9.2342.19200300.100.4.7 NAME 'room' SUP top STRUCTURAL MUST commonName MAY ( roomNumber $ description $ seeAlso $ telephoneNumber ) )
( 0.9.2342.19200300.100.4.9 NAME 'documentSeries' SUP top STRUCTURAL MUST commonName MAY ( description $ seeAlso $ telephonenumber $ localityName $ organizationName $ organizationalUnitName ) )
( 0.9.2342.19200300.100.4.13 NAME 'domain' SUP top STRUCTURAL MUST domainComponent MAY ( associatedName $ organizationName $ description $ businessCategory $ seeAlso $ searchGuide $ userPassword $ localityName $ stateOrProvinceName $ streetAddress $ physicalDeliveryOfficeName $ postalAddress $ postalCode $ postOfficeBox $ streetAddress $ facsimileTelephoneNumber $ internationalISDNNumber $ telephoneNumber $ teletexTerminalIdentifier $ telexNumber $ preferredDeliveryMethod $ destinationIndicator $ registeredAddress $ x121Address ) )
( 0.9.2342.19200300.100.4.14 NAME 'RFC822localPart' SUP domain STRUCTURAL MAY ( commonName $ surname $ description $ seeAlso $ telephoneNumber $ physicalDeliveryOfficeName $ postalAddress $ postalCode $ postOfficeBox $ streetAddress $ facsimileTelephoneNumber $ internationalISDNNumber $ telephoneNumber $ teletexTerminalIdentifier $ telexNumber $ preferredDeliveryMethod $ destinationIndicator $ registeredAddress $ x121Address ) )
( 0.9.2342.19200300.100.4.15 NAME 'dNSDomain' SUP domain STRUCTURAL MAY ( ARecord $ MDRecord $ MXRecord $ NSRecord $ SOARecord $ CNAMERecord ) )
( 0.9.2342.19200300.100.4.17 NAME 'domainRelatedObject' DESC 'RFC1274: an object related to an domain' SUP top AUXILIARY MUST associatedDomain )
( 0.9.2342.19200300.100.4.18 NAME 'friendlyCountry' SUP country STRUCTURAL MUST friendlyCountryName )
( 0.9.2342.19200300.100.4.20 NAME 'pilotOrganization' SUP ( organization $ organizationalUnit ) STRUCTURAL MAY buildingName )
( 0.9.2342.19200300.100.4.21 NAME 'pilotDSA' SUP dsa STRUCTURAL MAY dSAQuality )
( 0.9.2342.19200300.100.4.22 NAME 'qualityLabelledData' SUP top AUXILIARY MUST dsaQuality MAY ( subtreeMinimumQuality $ subtreeMaximumQuality ) )
( 2.16.840.1.113730.3.2.2 NAME 'inetOrgPerson' DESC 'RFC2798: Internet Organizational Person' SUP organizationalPerson STRUCTURAL MAY ( audio $ businessCategory $ carLicense $ departmentNumber $ displayName $ employeeNumber $ employeeType $ givenName $ homePhone $ homePostalAddress $ initials $ jpegPhoto $ labeledURI $ mail $ manager $ mobile $ o $ pager $ photo $ roomNumber $ secretary $ uid $ userCertificate $ x500uniqueIdentifier $ preferredLanguage $ userSMIMECertificate $ userPKCS12 ) )
( 1.3.6.1.4.1.5923.1.6.2.1 NAME 'eduCourse' AUXILIARY MAY ( eduCourseOffering $ eduCourseMember ) X-ORIGIN 'user defined' )
( 1.3.6.1.4.1.5923.1.1.2 NAME 'eduPerson' SUP top AUXILIARY MAY ( eduPersonAffiliation $ eduPersonNickName $ eduPersonOrgDN $ eduPersonOrgUnitDN $ eduPersonPrimaryAffiliation $ eduPersonPrincipalName $ eduPersonEntitlement $ eduPersonPrimaryOrgUnitDN $ eduPersonScopedAffiliation $ eduPersonTargetedID $ eduPersonAssurance ) X-ORIGIN 'user defined' )
( 1.3.6.1.4.1.19212.06.1.1.2.1 NAME 'umucPerson' SUP inetOrgPerson STRUCTURAL MUST ( cn $ sn $ uid ) MAY ( umucEmplID $ umucCampusPhone $ umucWorkPhone $ umucHomePhone $ umucCampusEmail $ umucWorkEmail $ umucHomeEmail $ umucLocation $ umucDepartment $ umucBuilding $ umucRoom $ umucMiddleName $ umucPersonPrivacy $ sAMAccountName $ umucPermanentAddress $ umucUSMPersonPrincipalID $ umucNetID $ umucDepartmentDescr $ umucPermanentPhone $ umucMajor $ umucLastTermElig $ umucLastTermReg $ umucBuckley $ umucConfidential $ umucAddressConfidential $ umucPhoneConfidential $ umucTeachingSubject $ umucTeachingSubject $ umucTerminationDate $ umucEmployeeUSA $ umucEmployeeEuro $ umucEmployeeAsia $ umucFacultyUSA $ umucFacultyEuro $ umucFacultyAsia $ umucNonEmployeeUSA $ umucNonEmployeeEuro $ umucNonEmployeeAsia $ umucStudentUSA $ umucStudentEuro $ umucStudentAsia $ umucDOB $ umucProfile $ umucGUID $ umucLibraryBarcode $ umucDivision $ umucPhonebookInternalPhone $ umucPhoneBookExternalPhone $ umucPhoneBookTitle $ umucStudentEmail $ umucEmployeeEmail $ umucFacultyEmail $ umucAlumniEmail $ umucPrefFirstName $ NTPassword $ umucVPNGroup $ umucLibStartDate $ umucLibEndDate $ umucSupervisorName $ umucManagerEmail $ umucCellPhone ) X-ORIGIN 'user defined' )
( 1.3.6.1.4.1.4754.2.99.1 NAME 'pwdPolicyChecker' SUP top AUXILIARY MAY pwdCheckModule )
( 1.3.6.1.4.1.42.2.27.8.2.1 NAME 'pwdPolicy' SUP top AUXILIARY MUST pwdAttribute MAY ( pwdMinAge $ pwdMaxAge $ pwdInHistory $ pwdCheckQuality $ pwdMinLength $ pwdExpireWarning $ pwdGraceAuthNLimit $ pwdLockout $ pwdLockoutDuration $ pwdMaxFailure $ pwdFailureCountInterval $ pwdMustChange $ pwdAllowUserChange $ pwdSafeModify ) )
( 2.16.840.1.113730.3.2.33 NAME 'groupOfURLs' SUP top STRUCTURAL MUST cn MAY ( memberURL $ businessCategory $ description $ o $ ou $ owner $ seeAlso ) )
( 1.3.6.1.4.1.4203.666.11.8.2.1 NAME 'dgIdentityAux' SUP top AUXILIARY MAY ( dgIdentity $ dgAuthz ) )
[DITContentRules]
